&EC=3&,1
EC=40,1
EC=38,1
RcpF=1,1
EC=7,5
Eipct=0,1
Eipct=25,1
Eipct=50,1
Eipct=75,1
Eipct=100,1
param1=placement_impression,1
param1=placement_completion,1
https://dt-secure.videohub.tv/v1/usync/bk?,1
https://dt-secure.videohub.tv/v1/usync/ns,1
https://dt-secure.videohub.tv/v1/usync/ex?,1
https://dt-secure.videohub.tv/v1/usync/lr?,1
https://dt-secure.videohub.tv/v1/usync/lo?,1
https://dt-secure.videohub.tv/v1/usync/dd?,1
https://dt-secure.videohub.tv/v1/usync/lrjs?,1
https://dt-secure.videohub.tv/v1/usync/kx?,1
https://dt-secure.videohub.tv/v1/usync/tr?,1
https://dt-secure.videohub.tv/v1/usync/bs?,1
https://dt-secure.videohub.tv/v1/usync/spx?,1
https://sb.scorecardresearch.com/b?C1=1&C2=6000001&C3=&C4=&C5=010000,1
https://s.tremorvideodsp.com/q/doubleverifyTestPixel.gif?agnc=42674,1
https://static.tremorvideodsp.com/QA/nielsenOCRTestPixel.gif?ci=tremor,1