EC=3&,1
EC=40,1
EC=38,1
EC=2,1
RcpF=1,1
EC=7,5
Eipct=0,1
Eipct=25,1
Eipct=50,1
Eipct=75,1
Eipct=100,1
param1=creative_completion,1
param1=creative_impression,1
param1=creative_first_quartile,1
param1=creative_second_quartile,1
param1=creative_third_quartile,1
param1=screen_impression,1
param1=screen_completion,1
param1=screen_first_quartile,1
param1=screen_second_quartile,1
param1=screen_third_quartile,1
https://tps30.doubleverify.com/visit.jpg?ctx=42674&cmp=2256325,1
https://tps30.doubleverify.com/visit.jpg?ctx=42674&cmp=DV069178,1
https://sync.doubleverify.com/query.gif?ctx=42674&cmp=2256325&,1
https://sync.doubleverify.com/query.gif?ctx=42674&cmp=2311460&,1
https://tags.bluekai.com/site/2954,1