TESTNAME,URL
REG-3202,https://s.tremorvideodsp.com/q/JW_PLAYER/JW_3202_RML.html#jw8
REG-3203,https://s.tremorvideodsp.com/q/JW_PLAYER/JW_3203_RML.html#jw8
REG-3069,https://s.tremorvideodsp.com/q/JW_PLAYER/JW_3069_RML.html#jw8
REG-3204,https://s.tremorvideodsp.com/q/JW_PLAYER/JW_3204_RML.html#jw8
REG-3205,https://s.tremorvideodsp.com/q/JW_PLAYER/JW_3205_RML.html#jw8
REG-3206,https://s.tremorvideodsp.com/q/JW_PLAYER/JW_3206_RML.html#jw8
REG-3207,https://s.tremorvideodsp.com/q/JW_PLAYER/JW_3207_RML.html#jw8
REG-3208,https://s.tremorvideodsp.com/q/JW_PLAYER/JW_3208_RML.html#jw8
REG-3241,https://s.tremorvideodsp.com/q/JW_PLAYER/JW_E2E_JS_3241_RML.html#jw8
REG-3255,https://s.tremorvideodsp.com/q/JW_PLAYER/JW_E2E_JS_3255_RML.html#jw8
REG-3256,https://s.tremorvideodsp.com/q/JW_PLAYER/JW_E2E_JS_3256_RML.html#jw8
REG-3263,https://s.tremorvideodsp.com/q/JW_PLAYER/JW_3263_RML.html#jw8
REG-3264,https://s.tremorvideodsp.com/q/JW_PLAYER/JW_3264_RML.html#jw8
REG-3265,https://s.tremorvideodsp.com/q/JW_PLAYER/JW_3265_RML.html#jw8
REG-3266,https://s.tremorvideodsp.com/q/JW_PLAYER/JW_3266_RML.html#jw8
REG-3267,https://s.tremorvideodsp.com/q/JW_PLAYER/JW_3267_RML.html#jw8
REG-3269,https://s.tremorvideodsp.com/q/JW_PLAYER/JW_3269_RML.html#jw8
REG-3281,https://s.tremorvideodsp.com/q/JW_PLAYER/JW_CTV_Testing.html#jw8