URL,Status,Response Code,Protocol,Method,Content-Type,Client Address,Client Port,Remote Address,Remote Port,Exception,Request Start Time,Request End Time,Response Start Time,Response End Time,Duration (ms),DNS Duration (ms),Connect Duration (ms),SSL Duration (ms),Request Duration (ms),Response Duration (ms),Latency (ms),Speed (KB/s),Request Speed (KB/s),Response Speed (KB/s),Request Handshake Size (bytes),Request Header Size (bytes),Request Body Size (bytes),Response Handshake Size (bytes),Response Header Size (bytes),Response Body Size (bytes),Request Compression,Response Compression
https://ts01-b.cloudsink.net,RECEIVING_REQUEST_BODY,200,https,CONNECT,,/127.0.0.1,53259,ts01-b.cloudsink.net/54.183.142.105,443,,30 May 2019 15:12:00,,,,1023740,1,72,176,,,,0.06542969,,,1246,0,40710,17474,0,9278,,
https://entitlements.jwplayer.com,COMPLETE,200,https,CONNECT,,/127.0.0.1,53552,entitlements.jwplayer.com/72.21.81.189,443,,30 May 2019 15:27:37,,,30 May 2019 15:28:08,30795,2,2,54,,,,1.1416016,,,1684,0,317,33541,0,464,,
https://s.tremorvideodsp.com/q/video1_small.mp4,COMPLETE,206,https,GET,video/mp4,/127.0.0.1,53554,s.tremorvideodsp.com/23.48.36.205,443,,30 May 2019 15:27:37,30 May 2019 15:27:38,30 May 2019 15:27:38,30 May 2019 15:27:38,184,27,11,29,0,0,117,87.396484,0.0,0.0,1058,358,,15049,0,2,,
https://jwpltx.com,COMPLETE,200,https,CONNECT,,/127.0.0.1,53555,jwpltx.com/34.192.3.61,443,,30 May 2019 15:27:37,,,30 May 2019 15:28:53,75238,5,9,41,,,,0.4326172,,,1609,0,4638,26340,0,792,,
https://s.tremorvideodsp.com/q/video1_small.mp4,COMPLETE,206,https,GET,video/mp4,/127.0.0.1,53554,s.tremorvideodsp.com/23.48.36.205,443,,30 May 2019 15:27:38,30 May 2019 15:27:38,30 May 2019 15:27:38,30 May 2019 15:27:38,195,,,,0,15,180,330.01758,0.0,4266.666,,362,,,0,65536,,
https://s.tremorvideodsp.com/q/video1_small.mp4,COMPLETE,206,https,GET,video/mp4,/127.0.0.1,53554,s.tremorvideodsp.com/23.48.36.205,443,,30 May 2019 15:27:38,30 May 2019 15:27:38,30 May 2019 15:27:38,30 May 2019 15:27:38,36,,,,0,8,28,1787.7598,0.0,8000.0,,368,,,0,65536,,
https://s.tremorvideodsp.com/q/video1_small.mp4,COMPLETE,206,https,GET,video/mp4,/127.0.0.1,53558,s.tremorvideodsp.com/23.48.36.205,443,,30 May 2019 15:27:38,30 May 2019 15:27:38,30 May 2019 15:27:38,30 May 2019 15:27:38,544,2,11,31,0,473,27,17784.41,0.0,20451.156,986,368,,14959,0,9890599,,
https://s.tremorvideodsp.com/q/video1_small.mp4,COMPLETE,206,https,GET,video/mp4,/127.0.0.1,53554,s.tremorvideodsp.com/23.48.36.205,443,,30 May 2019 15:27:38,30 May 2019 15:27:38,30 May 2019 15:27:38,30 May 2019 15:27:38,34,,,,0,6,28,1892.9219,0.0,10666.666,,368,,,0,65536,,
https://adserver.videohub.tv/preview?RI=-_4K4O3w7CspJJWcfG3I5w&screenType=mobiletablet&rml=true&Uctry=__country__&Ust=__state__&Udma=__dma__&Uzip=__postalCode__&Ucty=__city__&Uctnt=__continent__&Ulong=__longitude__&Ulat=__latitude__&Uacd=__areaCode__&position_ACP=__adChoicesPosition__&usedACP=__usedACP__&dspACP=__adChoicesProviders__&sig=A155FCA224910EB255D27BD0E4352508&CI=QkVpBSG0y-r_S_mC1CaF6Q&dmps=y&ssRmlApp=1&isApp=y,COMPLETE,200,https,GET,application/xml; charset=utf-8,/127.0.0.1,53560,adserver.videohub.tv/67.226.210.8,443,,30 May 2019 15:27:47,30 May 2019 15:27:47,30 May 2019 15:27:47,30 May 2019 15:27:47,74,4,11,31,0,11,17,575.8281,0.0,3719.2822,1046,694,,25605,0,16289,,
https://objects-secure.videohub.tv/net/js/rml-app.min.js?adData=https%3A%2F%2Fs.tremorvideodsp.com%2Fq%2Ftp_mp4.xml,COMPLETE,200,https,GET,application/javascript,/127.0.0.1,53562,objects-secure.videohub.tv/104.110.215.249,443,,30 May 2019 15:27:47,30 May 2019 15:27:47,30 May 2019 15:27:47,30 May 2019 15:27:47,77,28,8,22,0,11,8,1028.8018,0.0,7072.4424,1070,385,,16754,0,62910,,72.6%
https://s.tremorvideodsp.com/q/tp_mp4.xml,COMPLETE,200,https,GET,text/xml,/127.0.0.1,53564,s.tremorvideodsp.com/23.48.36.205,443,,30 May 2019 15:27:47,30 May 2019 15:27:47,30 May 2019 15:27:47,30 May 2019 15:27:47,123,1,11,27,0,1,83,133.34375,0.0,15076.172,1046,311,,15049,0,389,,55.6%
https://s.tremorvideodsp.com/q/preroll.mp4,COMPLETE,206,https,GET,video/mp4,/127.0.0.1,53564,s.tremorvideodsp.com/23.48.36.205,443,,30 May 2019 15:27:47,30 May 2019 15:27:47,30 May 2019 15:27:47,30 May 2019 15:27:47,61,,,,0,0,61,6.147461,0.0,0.0,,382,,,0,2,,
https://s.tremorvideodsp.com/q/preroll.mp4,COMPLETE,206,https,GET,video/mp4,/127.0.0.1,53564,s.tremorvideodsp.com/23.48.36.205,443,,30 May 2019 15:27:47,30 May 2019 15:27:47,30 May 2019 15:27:47,30 May 2019 15:27:47,32,,,,0,1,31,511.7793,0.0,16000.0,,386,,,0,16384,,
https://s.tremorvideodsp.com/q/preroll.mp4,COMPLETE,206,https,GET,video/mp4,/127.0.0.1,53564,s.tremorvideodsp.com/23.48.36.205,443,,30 May 2019 15:27:47,30 May 2019 15:27:47,30 May 2019 15:27:47,30 May 2019 15:27:47,50,,,,0,2,48,327.6172,0.0,8000.0,,390,,,0,16384,,
https://s.tremorvideodsp.com/q/preroll.mp4,COMPLETE,206,https,GET,video/mp4,/127.0.0.1,53564,s.tremorvideodsp.com/23.48.36.205,443,,30 May 2019 15:27:47,30 May 2019 15:27:47,30 May 2019 15:27:47,30 May 2019 15:27:47,190,,,,0,162,28,11604.954,0.0,13608.386,,392,,,0,2257468,,
https://s.tremorvideodsp.com/q/preroll.mp4,COMPLETE,206,https,GET,video/mp4,/127.0.0.1,53566,s.tremorvideodsp.com/23.48.36.205,443,,30 May 2019 15:27:47,30 May 2019 15:27:47,30 May 2019 15:27:47,30 May 2019 15:27:47,107,6,10,43,1,2,45,298.61816,1343.75,15304.199,986,390,,14959,0,16384,,
https://s.tremorvideodsp.com/q/preroll.mp4,COMPLETE,206,https,GET,video/mp4,/127.0.0.1,53568,s.tremorvideodsp.com/23.48.36.205,443,,30 May 2019 15:27:47,30 May 2019 15:27:47,30 May 2019 15:27:47,30 May 2019 15:27:47,170,4,10,32,0,2,122,187.96484,0.0,15304.199,986,392,,14959,0,16384,,
https://s.tremorvideodsp.com/q/qa1.js?param1=screen_impression,COMPLETE,200,https,GET,application/x-javascript,/127.0.0.1,53564,s.tremorvideodsp.com/23.48.36.205,443,,30 May 2019 15:27:47,30 May 2019 15:27:47,30 May 2019 15:27:48,30 May 2019 15:27:48,35,,,,0,1,34,16.85254,0.0,265.625,,332,,,0,272,,
https://s.tremorvideodsp.com/q/qa1.js?param1=creative_impression,COMPLETE,200,https,GET,application/x-javascript,/127.0.0.1,53566,s.tremorvideodsp.com/23.48.36.205,443,,30 May 2019 15:27:47,30 May 2019 15:27:47,30 May 2019 15:27:48,30 May 2019 15:27:48,35,,,,0,1,34,16.908203,0.0,265.625,,334,,,0,272,,
https://dt-secure.videohub.tv/v1/usync/ironsource?userId=,COMPLETE,303,https,GET,image/gif,/127.0.0.1,53570,dt-secure.videohub.tv/67.226.210.13,443,,30 May 2019 15:27:48,30 May 2019 15:27:48,30 May 2019 15:27:48,30 May 2019 15:27:48,65,3,9,36,0,0,17,410.8623,0.0,0.0,1050,385,,25869,0,43,,
https://sync.doubleverify.com/query.gif?ctx=42674&cmp=2311460&DVP_CMPID=3502456&DVP_PUBID=&dvp_red=http%3A%2F%2Fads.videohub.tv%2Fssframework%2Fdt%2Fbotid%3Fa%3Dset%26DUID%3D1,COMPLETE,200,https,GET,image/gif,/127.0.0.1,53572,sync.doubleverify.com/204.154.111.224,443,,30 May 2019 15:27:48,30 May 2019 15:27:48,30 May 2019 15:27:48,30 May 2019 15:27:48,30,18,3,4,0,0,5,79.3291,0.0,0.0,729,503,,345,0,860,,-6.6%
https://tags.bluekai.com/site/2954,COMPLETE,200,https,GET,image/gif,/127.0.0.1,53574,tags.bluekai.com/96.7.23.53,443,,30 May 2019 15:27:48,30 May 2019 15:27:48,30 May 2019 15:27:48,30 May 2019 15:27:48,149,27,11,36,0,0,75,100.06738,0.0,0.0,1030,362,,13814,0,62,,
https://tps30.doubleverify.com/visit.jpg?ctx=42674&cmp=2256325&sid=1111&plc=22563261&num=&adid=&advid=498259&adsrv=41&region=30&btreg=&btadsrv=&crt=&crtname=&chnl=&unit=&pid=&uid=&dvtagver=6.1.img&DVP_CMPID=3502456&DVP_PUBID=&turl=tremorvideodsp.com,COMPLETE,200,https,GET,image/jpeg,/127.0.0.1,53573,tps30.doubleverify.com/204.154.111.111,443,,30 May 2019 15:27:48,30 May 2019 15:27:48,30 May 2019 15:27:48,30 May 2019 15:27:48,230,109,3,15,0,21,82,110.81348,0.0,1131.8818,1182,577,,24198,0,142,,53.4%
https://s.tremorvideodsp.com/q/qa.gif?param1=screen_impression,COMPLETE,200,https,GET,image/gif,/127.0.0.1,53568,s.tremorvideodsp.com/23.48.36.205,443,,30 May 2019 15:27:48,30 May 2019 15:27:48,30 May 2019 15:27:48,30 May 2019 15:27:48,23,,,,1,1,21,18.384766,380.85938,41.992188,,390,,,0,43,,
"https://secure-gl.imrworldwide.com/cgi-bin/m?ci=nlsnapi12535&am=4&ep=1&at=view&rt=banner&st=image&ca=3500226_000&cr=&pc=3502456&r=734209462&c7=osgrp,iOS&c8=devgrp,TAB&c9=devid,unknown&c10=plt,MBL&c12=apv,12.1&c13=asid,PF85C1805-9397-D9CB-E040-070AAD31777E&c14=osver,12.1",COMPLETE,200,https,GET,image/gif,/127.0.0.1,53577,secure-gl.imrworldwide.com/99.84.41.9,443,,30 May 2019 15:27:48,30 May 2019 15:27:48,30 May 2019 15:27:48,30 May 2019 15:27:48,73,37,2,12,0,0,22,242.05371,0.0,0.0,1070,598,,16382,0,44,,
https://tp.videohub.tv/v1/topprop.png?domain=&ui=&pri=cf989df5-f3a8-4461-b78d-239e66816b6a&ssRnd=1030209450,COMPLETE,200,https,GET,image/png,/127.0.0.1,53576,tp.videohub.tv/67.226.210.12,443,,30 May 2019 15:27:48,30 May 2019 15:27:48,30 May 2019 15:27:48,30 May 2019 15:27:48,74,18,10,29,0,0,17,361.18262,0.0,0.0,1022,435,,25869,0,43,,
https://s.tremorvideodsp.com/q/qa.gif?param1=creative_impression,COMPLETE,200,https,GET,image/gif,/127.0.0.1,53578,s.tremorvideodsp.com/23.48.36.205,443,,30 May 2019 15:27:48,30 May 2019 15:27:48,30 May 2019 15:27:48,30 May 2019 15:27:48,63,2,12,29,0,1,19,253.90625,0.0,14650.391,986,392,,14959,0,43,,
https://s.tremorvideodsp.com/q/qa1.js?param1=impression,COMPLETE,200,https,GET,application/x-javascript,/127.0.0.1,53580,s.tremorvideodsp.com/23.48.36.205,443,,30 May 2019 15:27:48,30 May 2019 15:27:48,30 May 2019 15:27:48,30 May 2019 15:27:48,70,7,11,29,2,0,21,231.58398,668.45703,0.0,986,383,,14959,0,272,,
https://s.tremorvideodsp.com/q/qa.gif?param1=impression_2,COMPLETE,200,https,GET,image/gif,/127.0.0.1,53564,s.tremorvideodsp.com/23.48.36.205,443,,30 May 2019 15:27:48,30 May 2019 15:27:48,30 May 2019 15:27:48,30 May 2019 15:27:48,19,,,,0,0,19,21.998047,0.0,0.0,,385,,,0,43,,
https://s.tremorvideodsp.com/q/qa.gif?param1=impression_1,COMPLETE,200,https,GET,image/gif,/127.0.0.1,53579,s.tremorvideodsp.com/23.48.36.205,443,,30 May 2019 15:27:48,30 May 2019 15:27:48,30 May 2019 15:27:48,30 May 2019 15:27:48,63,2,11,30,0,1,19,253.79688,0.0,14650.391,986,385,,14959,0,43,,
https://l0-secure.videohub.tv/ssframework/log/log.png?EC=3&a=logitemaction&nolog=1&ssPD=tremorvideodsp.com&Uzip=__postalCode__&CI=3502456&ADI=7587606&PRI=cf989df5-f3a8-4461-b78d-239e66816b6a&Udma=__dma__&ssMLVer=rml_app_1.9.0&Uctry=__country__&AVI=425726&ssASVer=2.0&PBI=3500226&RI=1&Ust=__state__&NI=1344&admode=preroll&ssDsC=mobiletablet&ssRnd=1392641322&SfF=true&dspPartnerFee=vi-dviab:0.0001500000;rp-nielsen:0.0099800000&AmN=1&ssBe=1&adFocus=true&RvN=1,COMPLETE,200,https,GET,image/gif,/127.0.0.1,53581,l0-secure.videohub.tv/67.226.210.12,443,,30 May 2019 15:27:48,30 May 2019 15:27:48,30 May 2019 15:27:48,30 May 2019 15:27:48,71,17,10,30,1,0,13,381.64258,1791.9922,0.0,1050,785,,25869,0,43,,
https://dt-secure.videohub.tv/v1/usync/pubmatic?userId=,COMPLETE,303,https,GET,image/gif,/127.0.0.1,53591,dt-secure.videohub.tv/67.226.210.13,443,,30 May 2019 15:27:48,30 May 2019 15:27:48,30 May 2019 15:27:48,30 May 2019 15:27:48,68,2,14,32,0,1,19,391.8457,0.0,25304.688,990,383,,25869,0,43,,
https://dt-secure.videohub.tv/v1/usync/bs?userId=,COMPLETE,303,https,GET,image/gif,/127.0.0.1,53589,dt-secure.videohub.tv/67.226.210.13,443,,30 May 2019 15:27:48,30 May 2019 15:27:48,30 May 2019 15:27:48,30 May 2019 15:27:48,54,1,15,27,0,0,11,493.32617,0.0,0.0,990,377,,25869,0,43,,
https://dt-secure.videohub.tv/v1/usync/springserve?userId=,COMPLETE,303,https,GET,image/gif,/127.0.0.1,53594,dt-secure.videohub.tv/67.226.210.13,443,,30 May 2019 15:27:48,30 May 2019 15:27:48,30 May 2019 15:27:48,30 May 2019 15:27:48,68,8,11,37,1,0,11,391.88867,1343.75,0.0,990,386,,25869,0,43,,
https://dt-secure.videohub.tv/v1/usync/lkqd_direct?userId=,COMPLETE,303,https,GET,image/gif,/127.0.0.1,53590,dt-secure.videohub.tv/67.226.210.13,443,,30 May 2019 15:27:48,30 May 2019 15:27:48,30 May 2019 15:27:48,30 May 2019 15:27:48,65,7,10,37,0,1,10,409.9756,0.0,25304.688,990,386,,25869,0,43,,
https://dt-secure.videohub.tv/v1/usync/rubicon?userId=,COMPLETE,303,https,GET,image/gif,/127.0.0.1,53593,dt-secure.videohub.tv/67.226.210.13,443,,30 May 2019 15:27:48,30 May 2019 15:27:48,30 May 2019 15:27:48,30 May 2019 15:27:48,72,5,11,43,0,0,13,370.0625,0.0,0.0,990,382,,25869,0,43,,
https://dt-secure.videohub.tv/v1/usync/spx?userId=,COMPLETE,303,https,GET,image/gif,/127.0.0.1,53570,dt-secure.videohub.tv/67.226.210.13,443,,30 May 2019 15:27:48,30 May 2019 15:27:48,30 May 2019 15:27:48,30 May 2019 15:27:48,11,,,,0,0,11,37.375,0.0,0.0,,378,,,0,43,,
https://cs.rtb-seller.com,COMPLETE,200,https,CONNECT,,/127.0.0.1,53600,cs.rtb-seller.com/34.235.49.76,443,,30 May 2019 15:27:48,,,30 May 2019 15:28:19,31478,9,9,175,,,,1.0410156,,,1484,0,388,31539,0,170,,
https://dt-secure.videohub.tv/v1/usync/rhythmone?userId=,COMPLETE,303,https,GET,image/gif,/127.0.0.1,53570,dt-secure.videohub.tv/67.226.210.13,443,,30 May 2019 15:27:48,30 May 2019 15:27:48,30 May 2019 15:27:48,30 May 2019 15:27:48,11,,,,0,1,10,37.908203,0.0,41.992188,,384,,,0,43,,
https://sync.doubleverify.com/query.gif?ctx=42674&cmp=2256325&DVP_CMPID=3502456&DVP_PUBID=&dvp_red=http%3A%2F%2Fapp.scanscout.com%2Fssframework%2Fdt%2Fbotid%3Fa%3Dset%26DUID%3D1,COMPLETE,200,https,GET,image/gif,/127.0.0.1,53602,sync.doubleverify.com/204.154.111.224,443,,30 May 2019 15:27:48,30 May 2019 15:27:48,30 May 2019 15:27:48,30 May 2019 15:27:48,14,1,3,3,0,1,6,166.99219,0.0,1176.7578,684,505,,345,0,860,,-6.6%
https://sync.search.spotxchange.com,COMPLETE,200,https,CONNECT,,/127.0.0.1,53603,sync.search.spotxchange.com/192.35.249.127,443,,30 May 2019 15:27:48,,,30 May 2019 15:28:19,31465,7,8,214,,,,0.42871094,,,1158,0,886,10533,0,1260,,
https://dt-secure.videohub.tv/v1/usync/tr?userId=,COMPLETE,303,https,GET,image/gif,/127.0.0.1,53570,dt-secure.videohub.tv/67.226.210.13,443,,30 May 2019 15:27:48,30 May 2019 15:27:48,30 May 2019 15:27:48,30 May 2019 15:27:48,11,,,,0,1,10,37.286133,0.0,41.992188,,377,,,0,43,,
https://dt-secure.videohub.tv/ssframework/tvuid?a=set&UI=,COMPLETE,400,https,GET,image/gif,/127.0.0.1,53589,dt-secure.videohub.tv/67.226.210.13,443,,30 May 2019 15:27:48,30 May 2019 15:27:48,30 May 2019 15:27:48,30 May 2019 15:27:48,10,,,,0,0,10,41.796875,0.0,0.0,,385,,,0,43,,
https://dt-secure.videohub.tv/v1/usync/ex?userId=,COMPLETE,303,https,GET,image/gif,/127.0.0.1,53591,dt-secure.videohub.tv/67.226.210.13,443,,30 May 2019 15:27:48,30 May 2019 15:27:48,30 May 2019 15:27:48,30 May 2019 15:27:48,14,,,,0,0,14,29.296875,0.0,0.0,,377,,,0,43,,
https://l0-secure.videohub.tv/ssframework/log/log.png?EC=7&a=logitemaction&nolog=1&ssPD=tremorvideodsp.com&Uzip=__postalCode__&CI=3502456&ADI=7587606&PRI=cf989df5-f3a8-4461-b78d-239e66816b6a&Udma=__dma__&ssMLVer=rml_app_1.9.0&Uctry=__country__&AVI=425726&ssASVer=2.0&PBI=3500226&RI=1&Ust=__state__&NI=1344&admode=preroll&ssDsC=mobiletablet&ssRnd=1987088405&Eipct=0&EvaF=1&EiN=1,COMPLETE,200,https,GET,image/gif,/127.0.0.1,53606,l0-secure.videohub.tv/67.226.210.12,443,,30 May 2019 15:27:48,30 May 2019 15:27:48,30 May 2019 15:27:48,30 May 2019 15:27:48,64,3,13,36,0,0,12,421.24902,0.0,0.0,990,705,,25869,0,43,,
https://sync.1rx.io,COMPLETE,200,https,CONNECT,,/127.0.0.1,53607,sync.1rx.io/8.41.222.150,443,,30 May 2019 15:27:48,,,30 May 2019 15:28:19,31418,4,2,207,,,,0.8613281,,,1094,0,796,24907,0,936,,
https://simage2.pubmatic.com,COMPLETE,200,https,CONNECT,,/127.0.0.1,53609,simage2.pubmatic.com/162.248.19.147,443,,30 May 2019 15:27:48,,,30 May 2019 15:28:19,31357,18,2,194,,,,0.6875,,,1499,0,455,19257,0,875,,
https://x.bidswitch.net,COMPLETE,200,https,CONNECT,,/127.0.0.1,53608,x.bidswitch.net/35.190.155.102,443,,30 May 2019 15:27:48,,,30 May 2019 15:27:58,10437,3,22,232,,,,3.609375,,,1146,0,405,36284,0,743,,
https://dt-secure.videohub.tv/v1/usync/lo?userId=,COMPLETE,303,https,GET,image/gif,/127.0.0.1,53589,dt-secure.videohub.tv/67.226.210.13,443,,30 May 2019 15:27:48,30 May 2019 15:27:48,30 May 2019 15:27:48,30 May 2019 15:27:48,12,,,,1,0,11,34.179688,368.16406,0.0,,377,,,0,43,,
https://dt-secure.videohub.tv/v1/usync/dd?userId=,COMPLETE,303,https,GET,image/gif,/127.0.0.1,53570,dt-secure.videohub.tv/67.226.210.13,443,,30 May 2019 15:27:48,30 May 2019 15:27:48,30 May 2019 15:27:48,30 May 2019 15:27:48,11,,,,1,0,10,37.286133,368.16406,0.0,,377,,,0,43,,
https://dt-secure.videohub.tv/v1/usync/ds?userId=,COMPLETE,303,https,GET,image/gif,/127.0.0.1,53594,dt-secure.videohub.tv/67.226.210.13,443,,30 May 2019 15:27:48,30 May 2019 15:27:48,30 May 2019 15:27:48,30 May 2019 15:27:48,12,,,,0,0,12,34.179688,0.0,0.0,,377,,,0,43,,
https://dt-secure.videohub.tv/v1/usync/lrjs?userId=,COMPLETE,303,https,GET,image/gif,/127.0.0.1,53590,dt-secure.videohub.tv/67.226.210.13,443,,30 May 2019 15:27:48,30 May 2019 15:27:48,30 May 2019 15:27:48,30 May 2019 15:27:48,10,,,,0,0,10,41.210938,0.0,0.0,,379,,,0,43,,
https://dt-secure.videohub.tv/v1/usync/db?userId=&deviceId=unknown&screenType=mobiletablet&osType=iOS&rand=734209462,COMPLETE,303,https,GET,image/gif,/127.0.0.1,53593,dt-secure.videohub.tv/67.226.210.13,443,,30 May 2019 15:27:48,30 May 2019 15:27:48,30 May 2019 15:27:48,30 May 2019 15:27:48,12,,,,0,0,12,39.631836,0.0,0.0,,444,,,0,43,,
https://dt-secure.videohub.tv/v1/usync/kx?userId=,COMPLETE,303,https,GET,image/gif,/127.0.0.1,53591,dt-secure.videohub.tv/67.226.210.13,443,,30 May 2019 15:27:48,30 May 2019 15:27:48,30 May 2019 15:27:48,30 May 2019 15:27:48,10,,,,0,0,10,41.015625,0.0,0.0,,377,,,0,43,,
https://partners.tremorhub.com,COMPLETE,200,https,CONNECT,,/127.0.0.1,53613,partners.tremorhub.com/34.193.211.130,443,,30 May 2019 15:27:48,,,30 May 2019 15:28:19,31313,38,9,199,,,,1.0751953,,,1509,0,387,32079,0,516,,
https://cs.lkqd.net,COMPLETE,200,https,CONNECT,,/127.0.0.1,53615,cs.lkqd.net/146.20.132.123,443,,30 May 2019 15:27:48,,,30 May 2019 15:28:19,31310,27,9,196,,,,1.3779297,,,1322,0,396,42000,0,482,,
https://pixel.rubiconproject.com,COMPLETE,200,https,CONNECT,,/127.0.0.1,53617,pixel.rubiconproject.com/208.185.50.80,443,,30 May 2019 15:27:48,,,30 May 2019 15:28:19,31308,117,10,255,,,,0.6328125,,,1589,0,890,16516,0,1322,,
https://sync.springserve.com,COMPLETE,200,https,CONNECT,,/127.0.0.1,53614,sync.springserve.com/18.214.171.42,443,,30 May 2019 15:27:48,,,30 May 2019 15:28:19,31294,35,9,204,,,,1.0527344,,,1499,0,397,31653,0,212,,
https://tps30.doubleverify.com/visit.jpg?ctx=42674&cmp=DV069178&sid=1111&plc=2018011501&advid=3819603&adsrv=0&tagtype=&dvtagver=6.1.img&DVP_PP_REP=1&DVP_IQM_ID=16&DVP_DV_TT=2&DVP_DV_CT=2&DVP_TR_SSP=&DVP_TR_PUB=[PUBLISHER_ID]&DVP_TR_SITE=[SUPPLY_ID]&DVP_TR_ADV=425726&DVP_TR_CMP=3502456&DVP_TR_PLC=3502456&turl=tremorvideodsp.com&DVP_PP_BUNDLE_ID=&DVP_TR_COST=,COMPLETE,200,https,GET,image/jpeg,/127.0.0.1,53618,tps30.doubleverify.com/204.154.111.111,443,,30 May 2019 15:27:48,30 May 2019 15:27:48,30 May 2019 15:27:48,30 May 2019 15:27:48,95,6,2,2,0,18,67,18.945312,0.0,25.444336,687,687,,327,0,142,,53.4%
https://loadm.exelator.com,COMPLETE,200,https,CONNECT,,/127.0.0.1,53619,loadm.exelator.com/147.75.39.192,443,,30 May 2019 15:27:48,,,30 May 2019 15:27:58,10365,3,2,193,,,,3.274414,,,1122,0,816,31294,0,1525,,
https://dt-secure.videohub.tv/v1/usync/al?userId=,COMPLETE,303,https,GET,image/gif,/127.0.0.1,53570,dt-secure.videohub.tv/67.226.210.13,443,,30 May 2019 15:27:48,30 May 2019 15:27:48,30 May 2019 15:27:48,30 May 2019 15:27:48,20,,,,0,1,19,20.507812,0.0,41.992188,,377,,,0,43,,
https://dt-secure.videohub.tv/v1/usync/ns?userId=,COMPLETE,303,https,GET,image/gif,/127.0.0.1,53593,dt-secure.videohub.tv/67.226.210.13,443,,30 May 2019 15:27:48,30 May 2019 15:27:48,30 May 2019 15:27:48,30 May 2019 15:27:48,11,,,,0,0,11,37.286133,0.0,0.0,,377,,,0,43,,
https://dt-secure.videohub.tv/v1/usync/bk?userId=,COMPLETE,303,https,GET,image/gif,/127.0.0.1,53594,dt-secure.videohub.tv/67.226.210.13,443,,30 May 2019 15:27:48,30 May 2019 15:27:48,30 May 2019 15:27:48,30 May 2019 15:27:48,11,,,,0,0,11,37.286133,0.0,0.0,,377,,,0,43,,
https://dt-secure.videohub.tv/v1/usync/lr?userId=,COMPLETE,303,https,GET,image/gif,/127.0.0.1,53590,dt-secure.videohub.tv/67.226.210.13,443,,30 May 2019 15:27:48,30 May 2019 15:27:48,30 May 2019 15:27:48,30 May 2019 15:27:48,10,,,,0,0,10,41.015625,0.0,0.0,,377,,,0,43,,
https://dpm.demdex.net,COMPLETE,200,https,CONNECT,,/127.0.0.1,53621,dpm.demdex.net/52.5.66.47,443,,30 May 2019 15:27:48,,,30 May 2019 15:28:19,31252,21,9,218,,,,0.6777344,,,1469,0,804,18303,0,1136,,
https://idpix.media6degrees.com,COMPLETE,200,https,CONNECT,,/127.0.0.1,53624,idpix.media6degrees.com/204.2.197.211,443,,30 May 2019 15:27:48,,,30 May 2019 15:27:48,331,39,1,207,,,,79.03906,,,1514,0,431,24075,0,770,,
https://bcp.crwdcntrl.net,COMPLETE,200,https,CONNECT,,/127.0.0.1,53628,bcp.crwdcntrl.net/52.72.57.144,443,,30 May 2019 15:27:48,,,30 May 2019 15:28:19,31246,22,9,215,,,,1.0703125,,,1484,0,797,31179,0,792,,
https://p.adsymptotic.com,COMPLETE,200,https,CONNECT,,/127.0.0.1,53626,p.adsymptotic.com/52.0.24.30,443,,30 May 2019 15:27:48,,,30 May 2019 15:28:19,31246,56,19,226,,,,0.70703125,,,1484,0,942,19281,0,920,,
https://objects-secure.tremormedia.com/net/js/lr.js?partner_id=6173cabd41b0ea8ec5ab2ac4d19fa110,COMPLETE,200,https,GET,application/javascript,/127.0.0.1,53625,objects-secure.tremormedia.com/104.110.194.47,443,,30 May 2019 15:27:48,30 May 2019 15:27:48,30 May 2019 15:27:48,30 May 2019 15:27:48,106,60,9,27,0,1,9,175.74414,0.0,17155.273,1086,423,,16789,0,778,,57.1%
https://beacon.krxd.net,COMPLETE,200,https,CONNECT,,/127.0.0.1,53630,beacon.krxd.net/54.243.113.133,443,,30 May 2019 15:27:48,,,30 May 2019 15:28:19,31217,9,8,222,,,,1.046875,,,1474,0,414,31113,0,482,,
https://idsync.rlcdn.com,COMPLETE,200,https,CONNECT,,/127.0.0.1,53636,idsync.rlcdn.com/34.95.92.78,443,,30 May 2019 15:27:48,,,30 May 2019 15:28:19,31167,6,2,205,,,,0.87109375,,,1347,0,838,24510,0,1107,,
https://stags.bluekai.com,COMPLETE,200,https,CONNECT,,/127.0.0.1,53635,stags.bluekai.com/96.7.23.53,443,,30 May 2019 15:27:48,,,30 May 2019 15:28:19,31168,2,12,216,,,,0.75097656,,,1484,0,459,21248,0,786,,
https://sync.alphonso.tv,COMPLETE,200,https,CONNECT,,/127.0.0.1,53638,sync.alphonso.tv/104.129.168.238,443,,30 May 2019 15:27:48,,,30 May 2019 15:28:19,31163,20,100,264,,,,0.94628906,,,1479,0,391,27865,0,471,,
https://aa.agkn.com,COMPLETE,200,https,CONNECT,,/127.0.0.1,53637,aa.agkn.com/63.251.88.56,443,,30 May 2019 15:27:48,,,30 May 2019 15:27:48,299,27,10,208,,,,75.53418,,,1454,0,402,20762,0,509,,
https://bsw.digitru.st,COMPLETE,200,https,CONNECT,,/127.0.0.1,53646,bsw.digitru.st/35.190.155.102,443,,30 May 2019 15:27:48,,,30 May 2019 15:27:59,10317,3,20,134,,,,3.5351562,,,1142,0,405,35144,0,658,,
https://pippio.com,COMPLETE,200,https,CONNECT,,/127.0.0.1,53648,pippio.com/107.178.254.65,443,,30 May 2019 15:27:48,,,30 May 2019 15:28:19,30856,5,3,17,,,,0.859375,,,1317,0,751,23570,0,1536,,
https://d.agkn.com,COMPLETE,200,https,CONNECT,,/127.0.0.1,53649,d.agkn.com/52.206.149.245,443,,30 May 2019 15:27:48,,,30 May 2019 15:28:19,30650,19,8,45,,,,0.8730469,,,1449,0,384,25023,0,570,,
https://us-east-sync.bidswitch.net,COMPLETE,200,https,CONNECT,,/127.0.0.1,53652,us-east-sync.bidswitch.net/35.185.66.230,443,,30 May 2019 15:27:48,,,30 May 2019 15:27:59,10329,2,21,65,,,,3.649414,,,1190,0,430,36284,0,700,,
https://dt-secure.videohub.tv/v1/uid?UIBK=kfxRJ2Jv99YksFOz,COMPLETE,200,https,GET,image/gif,/127.0.0.1,53570,dt-secure.videohub.tv/67.226.210.13,443,,30 May 2019 15:27:48,30 May 2019 15:27:48,30 May 2019 15:27:48,30 May 2019 15:27:48,11,,,,0,0,11,38.085938,0.0,0.0,,386,,,0,43,,
https://cm.g.doubleclick.net,COMPLETE,200,https,CONNECT,,/127.0.0.1,53654,cm.g.doubleclick.net/172.217.11.2,443,,30 May 2019 15:27:48,,,30 May 2019 15:28:19,30782,2,3,38,,,,0.5419922,,,1367,0,424,14341,0,969,,
https://tag.apxlv.com,COMPLETE,200,https,CONNECT,,/127.0.0.1,53656,tag.apxlv.com/162.223.54.6,443,,30 May 2019 15:27:49,,,30 May 2019 15:28:19,30673,4,9,49,,,,0.89160156,,,1464,0,368,25553,0,647,,
https://tag.cogocast.net,COMPLETE,200,https,CONNECT,,/127.0.0.1,53658,tag.cogocast.net/35.170.91.203,443,,30 May 2019 15:27:49,,,30 May 2019 15:28:19,30588,20,9,53,,,,1.0996094,,,1479,0,502,31563,0,923,,
https://gpush.cogocast.net,COMPLETE,200,https,CONNECT,,/127.0.0.1,53660,gpush.cogocast.net/162.223.54.16,443,,30 May 2019 15:27:49,,,30 May 2019 15:27:49,37,4,8,,,,,5.7265625,,,210,0,0,7,0,0,,
https://l0-secure.videohub.tv/ssframework/log/log.png?EC=40&a=logitemaction&nolog=1&ssPD=tremorvideodsp.com&Uzip=__postalCode__&CI=3502456&ADI=7587606&PRI=cf989df5-f3a8-4461-b78d-239e66816b6a&Udma=__dma__&ssMLVer=rml_app_1.9.0&Uctry=__country__&AVI=425726&ssASVer=2.0&PBI=3500226&RI=1&Ust=__state__&NI=1344&admode=preroll&ssDsC=mobiletablet&ssRnd=1775344126&EvaF=1&pctVw=0,COMPLETE,200,https,GET,image/gif,/127.0.0.1,53581,l0-secure.videohub.tv/67.226.210.12,443,,30 May 2019 15:27:50,30 May 2019 15:27:50,30 May 2019 15:27:50,30 May 2019 15:27:50,12,,,,1,0,11,60.464844,683.59375,0.0,,700,,,0,43,,
https://l0-secure.videohub.tv/ssframework/log/log.png?EC=7&a=logitemaction&nolog=1&ssPD=tremorvideodsp.com&Uzip=__postalCode__&CI=3502456&ADI=7587606&PRI=cf989df5-f3a8-4461-b78d-239e66816b6a&Udma=__dma__&ssMLVer=rml_app_1.9.0&Uctry=__country__&AVI=425726&ssASVer=2.0&PBI=3500226&RI=1&Ust=__state__&NI=1344&admode=preroll&ssDsC=mobiletablet&ssRnd=1686767844&Eipct=25&EiN=1,COMPLETE,200,https,GET,image/gif,/127.0.0.1,53581,l0-secure.videohub.tv/67.226.210.12,443,,30 May 2019 15:27:51,30 May 2019 15:27:51,30 May 2019 15:27:51,30 May 2019 15:27:51,12,,,,1,0,11,60.38379,682.6172,0.0,,699,,,0,43,,
https://s.tremorvideodsp.com/q/qa.gif?param1=screen_first_quartile,COMPLETE,200,https,GET,image/gif,/127.0.0.1,53564,s.tremorvideodsp.com/23.48.36.205,443,,30 May 2019 15:27:51,30 May 2019 15:27:51,30 May 2019 15:27:51,30 May 2019 15:27:51,25,,,,0,0,25,17.070312,0.0,0.0,,394,,,0,43,,
https://s.tremorvideodsp.com/q/qa.gif?param1=creative_first_quartile,COMPLETE,200,https,GET,image/gif,/127.0.0.1,53566,s.tremorvideodsp.com/23.48.36.205,443,,30 May 2019 15:27:51,30 May 2019 15:27:51,30 May 2019 15:27:51,30 May 2019 15:27:51,25,,,,1,0,24,17.148438,386.71875,0.0,,396,,,0,43,,
https://s.tremorvideodsp.com/q/qa.gif?param1=screen_click,COMPLETE,200,https,GET,image/gif,/127.0.0.1,53564,s.tremorvideodsp.com/23.48.36.205,443,,30 May 2019 15:27:52,30 May 2019 15:27:52,30 May 2019 15:27:52,30 May 2019 15:27:52,23,,,,0,1,22,18.171875,0.0,41.992188,,385,,,0,43,,
https://s.tremorvideodsp.com/q/qa.gif?param1=creative_click,COMPLETE,200,https,GET,image/gif,/127.0.0.1,53566,s.tremorvideodsp.com/23.48.36.205,443,,30 May 2019 15:27:52,30 May 2019 15:27:52,30 May 2019 15:27:52,30 May 2019 15:27:52,20,,,,0,0,20,20.996094,0.0,0.0,,387,,,0,43,,
https://l0-secure.videohub.tv/ssframework/log/log.png?EC=2&a=logitemaction&nolog=1&ssPD=tremorvideodsp.com&Uzip=__postalCode__&CI=3502456&ADI=7587606&PRI=cf989df5-f3a8-4461-b78d-239e66816b6a&Udma=__dma__&ssMLVer=rml_app_1.9.0&Uctry=__country__&AVI=425726&ssASVer=2.0&PBI=3500226&RI=1&Ust=__state__&NI=1344&admode=preroll&ssDsC=mobiletablet&ssRnd=1213718039,COMPLETE,200,https,GET,image/gif,/127.0.0.1,53581,l0-secure.videohub.tv/67.226.210.12,443,,30 May 2019 15:27:52,30 May 2019 15:27:52,30 May 2019 15:27:52,30 May 2019 15:27:52,11,,,,0,1,10,64.541016,0.0,41.992188,,684,,,0,43,,
https://l0-secure.videohub.tv/ssframework/log/log.png?EC=4&a=logitemaction&nolog=1&ssPD=tremorvideodsp.com&Uzip=__postalCode__&CI=3502456&ADI=7587606&PRI=cf989df5-f3a8-4461-b78d-239e66816b6a&Udma=__dma__&ssMLVer=rml_app_1.9.0&Uctry=__country__&AVI=425726&ssASVer=2.0&PBI=3500226&RI=1&Ust=__state__&NI=1344&admode=preroll&ssDsC=mobiletablet&ssRnd=1749573735&EiN=1,COMPLETE,200,https,GET,image/gif,/127.0.0.1,53581,l0-secure.videohub.tv/67.226.210.12,443,,30 May 2019 15:27:52,30 May 2019 15:27:52,30 May 2019 15:27:52,30 May 2019 15:27:52,11,,,,0,0,11,65.07422,0.0,0.0,,690,,,0,43,,
https://www.tremorvideodsp.com,COMPLETE,200,https,CONNECT,,/127.0.0.1,53662,www.tremorvideodsp.com/52.204.136.9,443,,30 May 2019 15:27:52,,,30 May 2019 15:28:22,30254,51,25,71,,,,0.47558594,,,1424,0,280,12301,0,744,,
https://www.tremorvideodsp.com,COMPLETE,200,https,CONNECT,,/127.0.0.1,53665,www.tremorvideodsp.com/52.204.136.9,443,,30 May 2019 15:27:52,,,30 May 2019 15:28:22,30701,3,8,63,,,,0.5136719,,,3024,0,511,12406,0,215,,
https://dt.scanscout.com,COMPLETE,200,https,CONNECT,,/127.0.0.1,53664,dt.scanscout.com/67.226.210.15,443,,30 May 2019 15:27:52,,,30 May 2019 15:27:57,5138,19,10,43,,,,6.696289,,,3096,0,536,31298,0,302,,
https://www.tremorvideodsp.com,COMPLETE,200,https,CONNECT,,/127.0.0.1,53669,www.tremorvideodsp.com/52.204.136.9,443,,30 May 2019 15:27:52,,,30 May 2019 15:28:22,30584,2,9,42,,,,0.45898438,,,1584,0,1760,10148,0,899,,
https://www.tremorvideodsp.com,COMPLETE,200,https,CONNECT,,/127.0.0.1,53670,www.tremorvideodsp.com/52.204.136.9,443,,30 May 2019 15:27:52,,,30 May 2019 15:28:22,30584,3,9,35,,,,0.52734375,,,1584,0,1738,12301,0,903,,
https://www.tremorvideodsp.com,COMPLETE,200,https,CONNECT,,/127.0.0.1,53668,www.tremorvideodsp.com/52.204.136.9,443,,30 May 2019 15:27:52,,,30 May 2019 15:28:22,30595,4,13,60,,,,0.49902344,,,1584,0,1174,12301,0,600,,
https://www.google-analytics.com,RECEIVED_RESPONSE_HEADER,200,https,CONNECT,,/127.0.0.1,53674,www.google-analytics.com/172.217.6.238,443,,30 May 2019 15:27:52,,,,71740,20,3,,,,,0.0068359375,,,517,0,0,,0,0,,
https://stats.g.doubleclick.net,RECEIVED_RESPONSE_HEADER,200,https,CONNECT,,/127.0.0.1,53676,stats.g.doubleclick.net/173.194.204.156,443,,30 May 2019 15:27:53,,,,71653,27,17,,,,,0.0068359375,,,517,0,0,,0,0,,
https://www.google.com,RECEIVED_RESPONSE_HEADER,200,https,CONNECT,,/127.0.0.1,53678,www.google.com/172.217.10.100,443,,30 May 2019 15:27:53,,,,71553,4,2,,,,,0.0068359375,,,517,0,0,,0,0,,
https://s.tremorvideodsp.com/q/qa.gif?param1=screen_click,COMPLETE,200,https,GET,image/gif,/127.0.0.1,53564,s.tremorvideodsp.com/23.48.36.205,443,,30 May 2019 15:28:05,30 May 2019 15:28:05,30 May 2019 15:28:06,30 May 2019 15:28:06,92,,,,0,0,92,4.5429688,0.0,0.0,,385,,,0,43,,
https://s.tremorvideodsp.com/q/qa.gif?param1=creative_click,COMPLETE,200,https,GET,image/gif,/127.0.0.1,53566,s.tremorvideodsp.com/23.48.36.205,443,,30 May 2019 15:28:05,30 May 2019 15:28:05,30 May 2019 15:28:05,30 May 2019 15:28:05,34,,,,0,4,30,12.350586,0.0,10.498047,,387,,,0,43,,
https://l0-secure.videohub.tv/ssframework/log/log.png?EC=2&a=logitemaction&nolog=1&ssPD=tremorvideodsp.com&Uzip=__postalCode__&CI=3502456&ADI=7587606&PRI=cf989df5-f3a8-4461-b78d-239e66816b6a&Udma=__dma__&ssMLVer=rml_app_1.9.0&Uctry=__country__&AVI=425726&ssASVer=2.0&PBI=3500226&RI=1&Ust=__state__&NI=1344&admode=preroll&ssDsC=mobiletablet&ssRnd=1213718039,COMPLETE,200,https,GET,image/gif,/127.0.0.1,53581,l0-secure.videohub.tv/67.226.210.12,443,,30 May 2019 15:28:05,30 May 2019 15:28:05,30 May 2019 15:28:06,30 May 2019 15:28:06,114,,14,36,50,1,13,236.82422,33.867188,25304.688,1050,684,,25869,0,43,,
https://s.tremorvideodsp.com/q/qa.gif?param1=screen_second_quartile,COMPLETE,200,https,GET,image/gif,/127.0.0.1,53564,s.tremorvideodsp.com/23.48.36.205,443,,30 May 2019 15:28:09,30 May 2019 15:28:09,30 May 2019 15:28:09,30 May 2019 15:28:09,40,,,,1,0,39,10.693359,385.7422,0.0,,395,,,0,43,,
https://l0-secure.videohub.tv/ssframework/log/log.png?EC=7&a=logitemaction&nolog=1&ssPD=tremorvideodsp.com&Uzip=__postalCode__&CI=3502456&ADI=7587606&PRI=cf989df5-f3a8-4461-b78d-239e66816b6a&Udma=__dma__&ssMLVer=rml_app_1.9.0&Uctry=__country__&AVI=425726&ssASVer=2.0&PBI=3500226&RI=1&Ust=__state__&NI=1344&admode=preroll&ssDsC=mobiletablet&ssRnd=1646388925&Eipct=50&EiN=1,COMPLETE,200,https,GET,image/gif,/127.0.0.1,53581,l0-secure.videohub.tv/67.226.210.12,443,,30 May 2019 15:28:09,30 May 2019 15:28:09,30 May 2019 15:28:09,30 May 2019 15:28:09,11,,,,0,0,11,65.87305,0.0,0.0,,699,,,0,43,,
https://s.tremorvideodsp.com/q/qa.gif?param1=creative_second_quartile,COMPLETE,200,https,GET,image/gif,/127.0.0.1,53566,s.tremorvideodsp.com/23.48.36.205,443,,30 May 2019 15:28:09,30 May 2019 15:28:09,30 May 2019 15:28:09,30 May 2019 15:28:09,39,,,,0,0,39,11.017578,0.0,0.0,,397,,,0,43,,
https://l0-secure.videohub.tv/ssframework/log/log.png?EC=7&a=logitemaction&nolog=1&ssPD=tremorvideodsp.com&Uzip=__postalCode__&CI=3502456&ADI=7587606&PRI=cf989df5-f3a8-4461-b78d-239e66816b6a&Udma=__dma__&ssMLVer=rml_app_1.9.0&Uctry=__country__&AVI=425726&ssASVer=2.0&PBI=3500226&RI=1&Ust=__state__&NI=1344&admode=preroll&ssDsC=mobiletablet&ssRnd=1431743954&Eipct=75&EiN=1,COMPLETE,200,https,GET,image/gif,/127.0.0.1,53581,l0-secure.videohub.tv/67.226.210.12,443,,30 May 2019 15:28:13,30 May 2019 15:28:13,30 May 2019 15:28:13,30 May 2019 15:28:13,13,,,,0,0,13,55.73828,0.0,0.0,,699,,,0,43,,
https://s.tremorvideodsp.com/q/qa.gif?param1=screen_third_quartile,COMPLETE,200,https,GET,image/gif,/127.0.0.1,53564,s.tremorvideodsp.com/23.48.36.205,443,,30 May 2019 15:28:13,30 May 2019 15:28:13,30 May 2019 15:28:13,30 May 2019 15:28:13,20,,,,1,1,18,21.33789,384.76562,41.992188,,394,,,0,43,,
https://s.tremorvideodsp.com/q/qa.gif?param1=creative_third_quartile,COMPLETE,200,https,GET,image/gif,/127.0.0.1,53566,s.tremorvideodsp.com/23.48.36.205,443,,30 May 2019 15:28:13,30 May 2019 15:28:13,30 May 2019 15:28:13,30 May 2019 15:28:13,18,,,,0,0,18,23.816406,0.0,0.0,,396,,,0,43,,
https://s.tremorvideodsp.com/q/qa.gif?param1=viewable_completion,COMPLETE,200,https,GET,image/gif,/127.0.0.1,53564,s.tremorvideodsp.com/23.48.36.205,443,,30 May 2019 15:28:16,30 May 2019 15:28:16,30 May 2019 15:28:16,30 May 2019 15:28:16,22,,,,0,0,22,19.308594,0.0,0.0,,392,,,0,43,,
https://l0-secure.videohub.tv/ssframework/log/log.png?EC=38&a=logitemaction&nolog=1&ssPD=tremorvideodsp.com&Uzip=__postalCode__&CI=3502456&ADI=7587606&PRI=cf989df5-f3a8-4461-b78d-239e66816b6a&Udma=__dma__&ssMLVer=rml_app_1.9.0&Uctry=__country__&AVI=425726&ssASVer=2.0&PBI=3500226&RI=1&Ust=__state__&NI=1344&admode=preroll&ssDsC=mobiletablet&ssRnd=259394302&EvaF=1&pctVw=100,COMPLETE,200,https,GET,image/gif,/127.0.0.1,53581,l0-secure.videohub.tv/67.226.210.12,443,,30 May 2019 15:28:16,30 May 2019 15:28:16,30 May 2019 15:28:16,30 May 2019 15:28:16,13,,,,0,0,13,55.88867,0.0,0.0,,701,,,0,43,,
https://s.tremorvideodsp.com/q/qa.gif?param1=creative_viewable_completion,COMPLETE,200,https,GET,image/gif,/127.0.0.1,53566,s.tremorvideodsp.com/23.48.36.205,443,,30 May 2019 15:28:16,30 May 2019 15:28:16,30 May 2019 15:28:16,30 May 2019 15:28:16,21,,,,1,0,20,20.646484,391.60156,0.0,,401,,,0,43,,
https://s.tremorvideodsp.com/q/qa.gif?param1=screen_completion,COMPLETE,200,https,GET,image/gif,/127.0.0.1,53564,s.tremorvideodsp.com/23.48.36.205,443,,30 May 2019 15:28:16,30 May 2019 15:28:16,30 May 2019 15:28:16,30 May 2019 15:28:16,18,,,,0,0,18,23.49121,0.0,0.0,,390,,,0,43,,
https://l0-secure.videohub.tv/ssframework/log/log.png?EC=7&a=logitemaction&nolog=1&ssPD=tremorvideodsp.com&Uzip=__postalCode__&CI=3502456&ADI=7587606&PRI=cf989df5-f3a8-4461-b78d-239e66816b6a&Udma=__dma__&ssMLVer=rml_app_1.9.0&Uctry=__country__&AVI=425726&ssASVer=2.0&PBI=3500226&RI=1&Ust=__state__&NI=1344&admode=preroll&ssDsC=mobiletablet&ssRnd=1817160607&Eipct=100&RcpF=1&EiN=1,COMPLETE,200,https,GET,image/gif,/127.0.0.1,53581,l0-secure.videohub.tv/67.226.210.12,443,,30 May 2019 15:28:16,30 May 2019 15:28:16,30 May 2019 15:28:16,30 May 2019 15:28:16,12,,,,0,0,12,61.035156,0.0,0.0,,707,,,0,43,,
https://s.tremorvideodsp.com/q/qa.gif?param1=creative_completion,COMPLETE,200,https,GET,image/gif,/127.0.0.1,53566,s.tremorvideodsp.com/23.48.36.205,443,,30 May 2019 15:28:16,30 May 2019 15:28:16,30 May 2019 15:28:16,30 May 2019 15:28:16,18,,,,0,1,17,23.59961,0.0,41.992188,,392,,,0,43,,
https://s.tremorvideodsp.com/q/qa.gif?param1=completion,COMPLETE,200,https,GET,image/gif,/127.0.0.1,53568,s.tremorvideodsp.com/23.48.36.205,443,,30 May 2019 15:28:16,30 May 2019 15:28:16,30 May 2019 15:28:17,30 May 2019 15:28:17,37,,,,0,0,37,11.243164,0.0,0.0,,383,,,0,43,,
https://s.tremorvideodsp.com/q/video1_small.mp4,COMPLETE,206,https,GET,video/mp4,/127.0.0.1,53681,s.tremorvideodsp.com/23.48.36.205,443,,30 May 2019 15:28:17,30 May 2019 15:28:17,30 May 2019 15:28:17,30 May 2019 15:28:17,108,29,10,43,1,1,24,148.89844,1382.8125,14698.242,1058,358,,15049,0,2,,
https://s.tremorvideodsp.com/q/video1_small.mp4,COMPLETE,206,https,GET,video/mp4,/127.0.0.1,53681,s.tremorvideodsp.com/23.48.36.205,443,,30 May 2019 15:28:17,30 May 2019 15:28:17,30 May 2019 15:28:17,30 May 2019 15:28:17,41,,,,0,14,27,1569.5977,0.0,4571.4277,,362,,,0,65536,,
https://s.tremorvideodsp.com/q/video1_small.mp4,COMPLETE,206,https,GET,video/mp4,/127.0.0.1,53681,s.tremorvideodsp.com/23.48.36.205,443,,30 May 2019 15:28:17,30 May 2019 15:28:17,30 May 2019 15:28:17,30 May 2019 15:28:17,33,,,,1,9,23,1950.2832,359.375,7111.1104,,368,,,0,65536,,
https://s.tremorvideodsp.com/q/video1_small.mp4,COMPLETE,206,https,GET,video/mp4,/127.0.0.1,53683,s.tremorvideodsp.com/23.48.36.205,443,,30 May 2019 15:28:17,30 May 2019 15:28:17,30 May 2019 15:28:17,30 May 2019 15:28:18,722,2,11,30,0,625,54,13399.887,0.0,15477.434,986,368,,14959,0,9890599,,
https://s.tremorvideodsp.com/q/video1_small.mp4,COMPLETE,206,https,GET,video/mp4,/127.0.0.1,53681,s.tremorvideodsp.com/23.48.36.205,443,,30 May 2019 15:28:17,30 May 2019 15:28:17,30 May 2019 15:28:17,30 May 2019 15:28:17,32,,,,0,5,27,2011.2305,0.0,12800.0,,368,,,0,65536,,
https://jwpltx.com,COMPLETE,200,https,CONNECT,,/127.0.0.1,53685,jwpltx.com/34.192.3.61,443,,30 May 2019 15:28:18,,,30 May 2019 15:28:48,30663,3,8,38,,,,1.0830078,,,1274,0,882,31731,0,132,,
https://www.tremorvideodsp.com,COMPLETE,200,https,CONNECT,,/127.0.0.1,53687,www.tremorvideodsp.com/52.86.186.182,443,,30 May 2019 15:28:22,,,30 May 2019 15:28:22,401,40,9,54,,,,110.078125,,,1584,0,268,10148,0,33201,,
https://entitlements.jwplayer.com,COMPLETE,200,https,CONNECT,,/127.0.0.1,53689,entitlements.jwplayer.com/72.21.81.189,443,,30 May 2019 15:28:22,,,30 May 2019 15:28:53,30204,1,2,57,,,,1.1582031,,,1524,0,317,33541,0,464,,
https://s.tremorvideodsp.com/q/video1_small.mp4,COMPLETE,206,https,GET,video/mp4,/127.0.0.1,53691,s.tremorvideodsp.com/23.48.36.205,443,,30 May 2019 15:28:23,30 May 2019 15:28:23,30 May 2019 15:28:23,30 May 2019 15:28:23,70,4,9,26,0,0,31,229.72852,0.0,0.0,1058,358,,15049,0,2,,
https://s.tremorvideodsp.com/q/video1_small.mp4,COMPLETE,206,https,GET,video/mp4,/127.0.0.1,53691,s.tremorvideodsp.com/23.48.36.205,443,,30 May 2019 15:28:23,30 May 2019 15:28:23,30 May 2019 15:28:23,30 May 2019 15:28:23,36,,,,0,13,23,1787.5977,0.0,4923.076,,362,,,0,65536,,
https://s.tremorvideodsp.com/q/video1_small.mp4,COMPLETE,206,https,GET,video/mp4,/127.0.0.1,53691,s.tremorvideodsp.com/23.48.36.205,443,,30 May 2019 15:28:23,30 May 2019 15:28:23,30 May 2019 15:28:23,30 May 2019 15:28:23,32,,,,0,5,27,2011.2305,0.0,12800.0,,368,,,0,65536,,
https://s.tremorvideodsp.com/q/video1_small.mp4,COMPLETE,206,https,GET,video/mp4,/127.0.0.1,53693,s.tremorvideodsp.com/23.48.36.205,443,com.xk72.proxy.ProxyException: Client closed connection before receiving entire response,30 May 2019 15:28:23,30 May 2019 15:28:23,30 May 2019 15:28:23,30 May 2019 15:28:23,225,2,10,28,0,157,28,4748.1504,0.0,6796.253,986,368,,14959,0,1077661,,
https://s.tremorvideodsp.com/q/video1_small.mp4,COMPLETE,206,https,GET,video/mp4,/127.0.0.1,53691,s.tremorvideodsp.com/23.48.36.205,443,,30 May 2019 15:28:23,30 May 2019 15:28:23,30 May 2019 15:28:23,30 May 2019 15:28:23,30,,,,0,5,25,2145.3125,0.0,12800.0,,368,,,0,65536,,
