URL,Status,Response Code,Protocol,Method,Content-Type,Client Address,Client Port,Remote Address,Remote Port,Exception,Request Start Time,Request End Time,Response Start Time,Response End Time,Duration (ms),DNS Duration (ms),Connect Duration (ms),SSL Duration (ms),Request Duration (ms),Response Duration (ms),Latency (ms),Speed (KB/s),Request Speed (KB/s),Response Speed (KB/s),Request Handshake Size (bytes),Request Header Size (bytes),Request Body Size (bytes),Response Handshake Size (bytes),Response Header Size (bytes),Response Body Size (bytes),Request Compression,Response Compression
https://14.client-channel.google.com,RECEIVING_RESPONSE_BODY,200,https,CONNECT,,/127.0.0.1,50798,14.client-channel.google.com/74.125.192.189,443,,03 Jun 2019 14:27:42,,,,1947435,38,33,34,,,,0.01171875,,,1608,0,8473,372,0,12990,,
https://ts01-b.cloudsink.net,RECEIVING_REQUEST_BODY,200,https,CONNECT,,/127.0.0.1,51057,ts01-b.cloudsink.net/54.193.67.98,443,,03 Jun 2019 14:29:35,,,,1834111,36,72,174,,,,0.083984375,,,1246,0,115773,17474,0,23422,,
https://ssl.gstatic.com,RECEIVING_REQUEST_BODY,200,https,CONNECT,,/127.0.0.1,51061,ssl.gstatic.com/172.217.12.195,443,,03 Jun 2019 14:29:47,,,,1821896,36,5,3,,,,0.00390625,,,1608,0,2515,372,0,3941,,
https://play.google.com,COMPLETE,200,https,CONNECT,,/127.0.0.1,51889,play.google.com/172.217.10.46,443,,03 Jun 2019 14:54:47,,,03 Jun 2019 14:58:47,240359,2,2,4,,,,0.018554688,,,2207,0,1362,372,0,,,
https://play.google.com,RECEIVING_REQUEST_BODY,200,https,CONNECT,,/127.0.0.1,51891,play.google.com/172.217.10.46,443,,03 Jun 2019 14:54:47,,,,322712,2,2,3,,,,0.030273438,,,1608,0,5649,372,0,2554,,
https://chat-pa.clients6.google.com,COMPLETE,200,https,CONNECT,,/127.0.0.1,51893,chat-pa.clients6.google.com/172.217.10.234,443,,03 Jun 2019 14:55:05,,,03 Jun 2019 14:58:47,221616,38,3,41,,,,0.10644531,,,2892,0,1195,19617,0,,,
https://chat-pa.clients6.google.com,COMPLETE,200,https,CONNECT,,/127.0.0.1,51895,chat-pa.clients6.google.com/172.217.10.234,443,,03 Jun 2019 14:55:05,,,03 Jun 2019 14:58:50,224319,1,2,43,,,,0.11035156,,,2892,0,1854,19621,0,,,
https://safebrowsing.googleapis.com,COMPLETE,200,https,CONNECT,,/127.0.0.1,51897,safebrowsing.googleapis.com/172.217.10.106,443,,03 Jun 2019 14:55:39,,,03 Jun 2019 14:57:39,120079,2,2,42,,,,0.21191406,,,2892,0,688,19621,0,,,
https://people-pa.clients6.google.com,COMPLETE,200,https,CONNECT,,/127.0.0.1,51907,people-pa.clients6.google.com/172.217.11.42,443,,03 Jun 2019 14:56:37,,,03 Jun 2019 14:58:47,129438,2,2,46,,,,0.18261719,,,2892,0,1194,19625,0,,,
https://people-pa.clients6.google.com,COMPLETE,200,https,CONNECT,,/127.0.0.1,51909,people-pa.clients6.google.com/172.217.11.42,443,,03 Jun 2019 14:56:38,,,03 Jun 2019 14:58:50,131810,1,2,49,,,,0.1875,,,2892,0,1981,19617,0,,,
https://entitlements.jwplayer.com,COMPLETE,200,https,CONNECT,,/127.0.0.1,51913,entitlements.jwplayer.com/72.21.81.189,443,,03 Jun 2019 14:58:39,,,03 Jun 2019 14:59:09,30129,2,1,57,,,,1.1669922,,,1684,0,317,33541,0,464,,
https://s.tremorvideodsp.com/q/video1_small.mp4,COMPLETE,206,https,GET,video/mp4,/127.0.0.1,51915,s.tremorvideodsp.com/23.48.39.122,443,,03 Jun 2019 14:58:39,03 Jun 2019 14:58:39,03 Jun 2019 14:58:39,03 Jun 2019 14:58:39,151,72,9,23,0,1,46,106.49609,0.0,14698.242,1058,358,,15049,0,2,,
https://jwpltx.com,COMPLETE,200,https,CONNECT,,/127.0.0.1,51916,jwpltx.com/52.1.12.241,443,,03 Jun 2019 14:58:39,,,03 Jun 2019 14:59:10,30783,54,10,37,,,,0.91015625,,,1609,0,609,26340,0,132,,
https://s.tremorvideodsp.com/q/video1_small.mp4,COMPLETE,206,https,GET,video/mp4,/127.0.0.1,51915,s.tremorvideodsp.com/23.48.39.122,443,,03 Jun 2019 14:58:39,03 Jun 2019 14:58:39,03 Jun 2019 14:58:39,03 Jun 2019 14:58:39,50,,,,0,12,38,1287.0703,0.0,5333.333,,362,,,0,65536,,
https://s.tremorvideodsp.com/q/video1_small.mp4,COMPLETE,206,https,GET,video/mp4,/127.0.0.1,51915,s.tremorvideodsp.com/23.48.39.122,443,,03 Jun 2019 14:58:39,03 Jun 2019 14:58:39,03 Jun 2019 14:58:39,03 Jun 2019 14:58:39,28,,,,0,6,22,2298.5488,0.0,10666.666,,368,,,0,65536,,
https://s.tremorvideodsp.com/q/video1_small.mp4,COMPLETE,206,https,GET,video/mp4,/127.0.0.1,51919,s.tremorvideodsp.com/23.48.39.122,443,,03 Jun 2019 14:58:39,03 Jun 2019 14:58:40,03 Jun 2019 14:58:40,03 Jun 2019 14:58:40,550,2,8,23,0,461,56,17590.398,0.0,20983.506,986,368,,14959,0,9890599,,
https://s.tremorvideodsp.com/q/video1_small.mp4,COMPLETE,206,https,GET,video/mp4,/127.0.0.1,51915,s.tremorvideodsp.com/23.48.39.122,443,,03 Jun 2019 14:58:39,03 Jun 2019 14:58:39,03 Jun 2019 14:58:39,03 Jun 2019 14:58:40,35,,,,0,4,31,1838.8389,0.0,16000.0,,368,,,0,65536,,
https://adserver.videohub.tv/preview?RI=-_4K4O3w7CspJJWcfG3I5w&screenType=mobiletablet&rml=true&Uctry=__country__&Ust=__state__&Udma=__dma__&Uzip=__postalCode__&Ucty=__city__&Uctnt=__continent__&Ulong=__longitude__&Ulat=__latitude__&Uacd=__areaCode__&position_ACP=__adChoicesPosition__&usedACP=__usedACP__&dspACP=__adChoicesProviders__&sig=A155FCA224910EB255D27BD0E4352508&CI=QkVpBSG0y-r_S_mC1CaF6Q&dmps=y&ssRmlApp=1&isApp=y,COMPLETE,200,https,GET,application/xml; charset=utf-8,/127.0.0.1,51921,adserver.videohub.tv/67.226.210.11,443,,03 Jun 2019 14:58:48,03 Jun 2019 14:58:48,03 Jun 2019 14:58:48,03 Jun 2019 14:58:48,66,4,10,29,0,10,13,645.5371,0.0,4090.625,1046,694,,25605,0,16283,,
https://objects-secure.videohub.tv/net/js/rml-app.min.js?adData=https%3A%2F%2Fs.tremorvideodsp.com%2Fq%2Ftp_mp4.xml,COMPLETE,200,https,GET,application/javascript,/127.0.0.1,51923,objects-secure.videohub.tv/104.110.215.249,443,,03 Jun 2019 14:58:48,03 Jun 2019 14:58:48,03 Jun 2019 14:58:48,03 Jun 2019 14:58:48,132,74,9,26,0,13,10,600.1338,0.0,5984.375,1070,385,,16754,0,62910,,72.6%
https://s.tremorvideodsp.com/q/tp_mp4.xml,COMPLETE,200,https,GET,text/xml,/127.0.0.1,51925,s.tremorvideodsp.com/23.48.39.122,443,,03 Jun 2019 14:58:48,03 Jun 2019 14:58:49,03 Jun 2019 14:58:49,03 Jun 2019 14:58:49,141,1,9,24,0,1,106,116.32129,0.0,15076.172,1046,311,,15049,0,389,,55.6%
https://objects-secure.tremormedia.com/net/js/io-polyfill-0.5.1.js,COMPLETE,200,https,GET,application/javascript,/127.0.0.1,51927,objects-secure.tremormedia.com/104.110.194.47,443,,03 Jun 2019 14:58:49,03 Jun 2019 14:58:49,03 Jun 2019 14:58:49,03 Jun 2019 14:58:49,116,74,9,24,1,0,8,206.8457,1388.6719,0.0,1086,336,,16789,0,6359,,71.5%
https://s.tremorvideodsp.com/q/preroll.mp4,COMPLETE,206,https,GET,video/mp4,/127.0.0.1,51925,s.tremorvideodsp.com/23.48.39.122,443,,03 Jun 2019 14:58:49,03 Jun 2019 14:58:49,03 Jun 2019 14:58:49,03 Jun 2019 14:58:49,49,,,,0,0,49,7.6523438,0.0,0.0,,382,,,0,2,,
https://s.tremorvideodsp.com/q/preroll.mp4,COMPLETE,206,https,GET,video/mp4,/127.0.0.1,51925,s.tremorvideodsp.com/23.48.39.122,443,,03 Jun 2019 14:58:49,03 Jun 2019 14:58:49,03 Jun 2019 14:58:49,03 Jun 2019 14:58:49,35,,,,0,2,33,467.9121,0.0,8000.0,,386,,,0,16384,,
https://s.tremorvideodsp.com/q/preroll.mp4,COMPLETE,206,https,GET,video/mp4,/127.0.0.1,51925,s.tremorvideodsp.com/23.48.39.122,443,,03 Jun 2019 14:58:49,03 Jun 2019 14:58:49,03 Jun 2019 14:58:49,03 Jun 2019 14:58:49,25,,,,0,1,24,655.2344,0.0,16000.0,,390,,,0,16384,,
https://s.tremorvideodsp.com/q/preroll.mp4,COMPLETE,206,https,GET,video/mp4,/127.0.0.1,51925,s.tremorvideodsp.com/23.48.39.122,443,,03 Jun 2019 14:58:49,03 Jun 2019 14:58:49,03 Jun 2019 14:58:49,03 Jun 2019 14:58:49,173,,,,0,152,21,12745.325,0.0,14503.675,,392,,,0,2257468,,
https://s.tremorvideodsp.com/q/preroll.mp4,COMPLETE,206,https,GET,video/mp4,/127.0.0.1,51929,s.tremorvideodsp.com/23.48.39.122,443,,03 Jun 2019 14:58:49,03 Jun 2019 14:58:49,03 Jun 2019 14:58:49,03 Jun 2019 14:58:49,99,2,11,35,1,2,48,322.74805,1343.75,15304.199,986,390,,14959,0,16384,,
https://prd.jwpltx.com,COMPLETE,200,https,CONNECT,,/127.0.0.1,51931,prd.jwpltx.com/54.174.103.247,443,,03 Jun 2019 14:58:49,,,03 Jun 2019 14:59:50,61044,98,10,139,,,,0.5986328,,,1469,0,3725,31731,0,528,,
https://s.tremorvideodsp.com/q/qa1.js?param1=screen_impression,COMPLETE,200,https,GET,application/x-javascript,/127.0.0.1,51925,s.tremorvideodsp.com/23.48.39.122,443,,03 Jun 2019 14:58:49,03 Jun 2019 14:58:49,03 Jun 2019 14:58:49,03 Jun 2019 14:58:49,44,,,,0,0,44,13.405273,0.0,0.0,,332,,,0,272,,
https://s.tremorvideodsp.com/q/qa1.js?param1=creative_impression,COMPLETE,200,https,GET,application/x-javascript,/127.0.0.1,51929,s.tremorvideodsp.com/23.48.39.122,443,,03 Jun 2019 14:58:49,03 Jun 2019 14:58:49,03 Jun 2019 14:58:49,03 Jun 2019 14:58:49,44,,,,0,0,44,13.449219,0.0,0.0,,334,,,0,272,,
https://dt-secure.videohub.tv/v1/usync/ironsource?userId=,COMPLETE,303,https,GET,image/gif,/127.0.0.1,51932,dt-secure.videohub.tv/67.226.210.15,443,,03 Jun 2019 14:58:49,03 Jun 2019 14:58:50,03 Jun 2019 14:58:50,03 Jun 2019 14:58:50,58,5,9,33,2,0,9,460.44922,700.6836,0.0,1050,385,,25869,0,43,,
https://sync.doubleverify.com/query.gif?ctx=42674&cmp=2311460&DVP_CMPID=3502456&DVP_PUBID=&dvp_red=http%3A%2F%2Fads.videohub.tv%2Fssframework%2Fdt%2Fbotid%3Fa%3Dset%26DUID%3D1,COMPLETE,200,https,GET,image/gif,/127.0.0.1,51933,sync.doubleverify.com/204.154.111.224,443,,03 Jun 2019 14:58:49,03 Jun 2019 14:58:49,03 Jun 2019 14:58:49,03 Jun 2019 14:58:49,12,1,2,4,0,0,5,198.32324,0.0,0.0,729,503,,345,0,860,,-6.6%
https://tps30.doubleverify.com/visit.jpg?ctx=42674&cmp=2256325&sid=1111&plc=22563261&num=&adid=&advid=498259&adsrv=41&region=30&btreg=&btadsrv=&crt=&crtname=&chnl=&unit=&pid=&uid=&dvtagver=6.1.img&DVP_CMPID=3502456&DVP_PUBID=&turl=tremorvideodsp.com,COMPLETE,200,https,GET,image/jpeg,/127.0.0.1,51935,tps30.doubleverify.com/204.154.111.104,443,,03 Jun 2019 14:58:49,03 Jun 2019 14:58:50,03 Jun 2019 14:58:50,03 Jun 2019 14:58:50,440,179,3,13,0,67,178,57.924805,0.0,354.76855,1182,577,,24198,0,142,,53.4%
https://tags.bluekai.com/site/2954,COMPLETE,200,https,GET,,/127.0.0.1,51937,tags.bluekai.com/96.7.23.53,443,,03 Jun 2019 14:58:49,03 Jun 2019 14:58:50,03 Jun 2019 14:58:50,03 Jun 2019 14:58:50,121,2,11,31,0,0,77,122.72363,0.0,0.0,1030,362,,13814,0,0,,
https://tp.videohub.tv/v1/topprop.png?domain=&ui=&pri=d1aa2eb3-1c3c-4a62-82de-f162df226185&ssRnd=836264485,COMPLETE,200,https,GET,image/png,/127.0.0.1,51938,tp.videohub.tv/67.226.210.12,443,,03 Jun 2019 14:58:49,03 Jun 2019 14:58:50,03 Jun 2019 14:58:50,03 Jun 2019 14:58:50,137,76,9,34,0,0,18,195.08398,0.0,0.0,1022,434,,25869,0,43,,
https://s.tremorvideodsp.com/q/qa.gif?param1=impression_1,COMPLETE,200,https,GET,image/gif,/127.0.0.1,51942,s.tremorvideodsp.com/23.48.39.122,443,,03 Jun 2019 14:58:49,03 Jun 2019 14:58:49,03 Jun 2019 14:58:50,03 Jun 2019 14:58:50,58,4,10,26,0,0,18,275.67676,0.0,0.0,986,385,,14959,0,43,,
https://s.tremorvideodsp.com/q/qa.gif?param1=creative_impression,COMPLETE,200,https,GET,image/gif,/127.0.0.1,51941,s.tremorvideodsp.com/23.48.39.122,443,,03 Jun 2019 14:58:49,03 Jun 2019 14:58:49,03 Jun 2019 14:58:50,03 Jun 2019 14:58:50,60,8,9,29,0,0,14,266.60156,0.0,0.0,986,392,,14959,0,43,,
https://s.tremorvideodsp.com/q/qa.gif?param1=screen_impression,COMPLETE,200,https,GET,image/gif,/127.0.0.1,51940,s.tremorvideodsp.com/23.48.39.122,443,,03 Jun 2019 14:58:49,03 Jun 2019 14:58:50,03 Jun 2019 14:58:50,03 Jun 2019 14:58:50,63,10,9,28,0,0,16,253.875,0.0,0.0,986,390,,14959,0,43,,
https://s.tremorvideodsp.com/q/qa.gif?param1=impression_2,COMPLETE,200,https,GET,image/gif,/127.0.0.1,51929,s.tremorvideodsp.com/23.48.39.122,443,,03 Jun 2019 14:58:49,03 Jun 2019 14:58:49,03 Jun 2019 14:58:49,03 Jun 2019 14:58:49,14,,,,0,0,14,29.854492,0.0,0.0,,385,,,0,43,,
https://s.tremorvideodsp.com/q/qa1.js?param1=impression,COMPLETE,200,https,GET,application/x-javascript,/127.0.0.1,51943,s.tremorvideodsp.com/23.48.39.122,443,,03 Jun 2019 14:58:49,03 Jun 2019 14:58:49,03 Jun 2019 14:58:50,03 Jun 2019 14:58:50,65,7,9,25,0,0,24,249.39844,0.0,0.0,986,383,,14959,0,272,,
https://l0-secure.videohub.tv/ssframework/log/log.png?EC=3&a=logitemaction&nolog=1&ssPD=tremorvideodsp.com&Uzip=__postalCode__&CI=3502456&ADI=7587606&PRI=d1aa2eb3-1c3c-4a62-82de-f162df226185&Udma=__dma__&ssMLVer=rml_app_1.9.0&Uctry=__country__&AVI=425726&ssASVer=2.0&PBI=3500226&RI=1&Ust=__state__&NI=1344&admode=preroll&ssDsC=mobiletablet&ssRnd=1684518141&SfF=true&dspPartnerFee=vi-dviab:0.0001500000;rp-nielsen:0.0099800000&AmN=1&ssBe=1&adFocus=true&RvN=1,COMPLETE,200,https,GET,image/gif,/127.0.0.1,51944,l0-secure.videohub.tv/67.226.210.12,443,,03 Jun 2019 14:58:49,03 Jun 2019 14:58:50,03 Jun 2019 14:58:50,03 Jun 2019 14:58:50,120,65,11,31,0,0,13,225.80566,0.0,0.0,1050,785,,25869,0,43,,
"https://secure-gl.imrworldwide.com/cgi-bin/m?ci=nlsnapi12535&am=4&ep=1&at=view&rt=banner&st=image&ca=3500226_000&cr=&pc=3502456&r=1896209925&c7=osgrp,iOS&c8=devgrp,TAB&c9=devid,unknown&c10=plt,MBL&c12=apv,12.1&c13=asid,PF85C1805-9397-D9CB-E040-070AAD31777E&c14=osver,12.1",COMPLETE,200,https,GET,image/gif,/127.0.0.1,51939,secure-gl.imrworldwide.com/99.84.127.8,443,,03 Jun 2019 14:58:49,03 Jun 2019 14:58:50,03 Jun 2019 14:58:50,03 Jun 2019 14:58:50,124,89,2,11,0,0,22,142.50684,0.0,0.0,1070,599,,16382,0,44,,
https://sync.doubleverify.com/query.gif?ctx=42674&cmp=2256325&DVP_CMPID=3502456&DVP_PUBID=&dvp_red=http%3A%2F%2Fapp.scanscout.com%2Fssframework%2Fdt%2Fbotid%3Fa%3Dset%26DUID%3D1,COMPLETE,200,https,GET,image/gif,/127.0.0.1,51952,sync.doubleverify.com/204.154.111.224,443,,03 Jun 2019 14:58:50,03 Jun 2019 14:58:50,03 Jun 2019 14:58:50,03 Jun 2019 14:58:50,11,2,2,2,0,1,4,212.53516,0.0,1176.7578,684,505,,345,0,860,,-6.6%
https://dt-secure.videohub.tv/v1/usync/bs?userId=,COMPLETE,303,https,GET,image/gif,/127.0.0.1,51956,dt-secure.videohub.tv/67.226.210.15,443,,03 Jun 2019 14:58:50,03 Jun 2019 14:58:50,03 Jun 2019 14:58:50,03 Jun 2019 14:58:50,58,2,10,32,0,0,14,459.3037,0.0,0.0,990,377,,25869,0,43,,
https://dt-secure.videohub.tv/v1/usync/lkqd_direct?userId=,COMPLETE,303,https,GET,image/gif,/127.0.0.1,51957,dt-secure.videohub.tv/67.226.210.15,443,,03 Jun 2019 14:58:50,03 Jun 2019 14:58:50,03 Jun 2019 14:58:50,03 Jun 2019 14:58:50,53,3,9,29,0,1,11,502.7998,0.0,25304.688,990,386,,25869,0,43,,
https://dt-secure.videohub.tv/v1/usync/springserve?userId=,COMPLETE,303,https,GET,image/gif,/127.0.0.1,51960,dt-secure.videohub.tv/67.226.210.15,443,,03 Jun 2019 14:58:50,03 Jun 2019 14:58:50,03 Jun 2019 14:58:50,03 Jun 2019 14:58:50,60,2,10,36,0,0,12,444.14062,0.0,0.0,990,386,,25869,0,43,,
https://dt-secure.videohub.tv/v1/usync/rubicon?userId=,COMPLETE,303,https,GET,image/gif,/127.0.0.1,51959,dt-secure.videohub.tv/67.226.210.15,443,,03 Jun 2019 14:58:50,03 Jun 2019 14:58:50,03 Jun 2019 14:58:50,03 Jun 2019 14:58:50,60,3,9,32,0,0,16,444.0752,0.0,0.0,990,382,,25869,0,43,,
https://dt-secure.videohub.tv/v1/usync/pubmatic?userId=,COMPLETE,303,https,GET,image/gif,/127.0.0.1,51958,dt-secure.videohub.tv/67.226.210.15,443,,03 Jun 2019 14:58:50,03 Jun 2019 14:58:50,03 Jun 2019 14:58:50,03 Jun 2019 14:58:50,70,2,10,34,0,0,24,380.6494,0.0,0.0,990,383,,25869,0,43,,
https://dt-secure.videohub.tv/v1/usync/spx?userId=,COMPLETE,303,https,GET,image/gif,/127.0.0.1,51932,dt-secure.videohub.tv/67.226.210.15,443,,03 Jun 2019 14:58:50,03 Jun 2019 14:58:50,03 Jun 2019 14:58:50,03 Jun 2019 14:58:50,15,,,,0,0,15,27.408203,0.0,0.0,,378,,,0,43,,
https://dt-secure.videohub.tv/v1/usync/rhythmone?userId=,COMPLETE,303,https,GET,image/gif,/127.0.0.1,51932,dt-secure.videohub.tv/67.226.210.15,443,,03 Jun 2019 14:58:50,03 Jun 2019 14:58:50,03 Jun 2019 14:58:50,03 Jun 2019 14:58:50,14,,,,0,0,14,29.785156,0.0,0.0,,384,,,0,43,,
https://cs.rtb-seller.com,COMPLETE,200,https,CONNECT,,/127.0.0.1,51967,cs.rtb-seller.com/34.235.49.76,443,,03 Jun 2019 14:58:50,,,03 Jun 2019 14:59:21,31191,5,9,136,,,,1.0507812,,,1484,0,388,31539,0,170,,
https://sync.search.spotxchange.com,COMPLETE,200,https,CONNECT,,/127.0.0.1,51968,sync.search.spotxchange.com/192.35.249.127,443,,03 Jun 2019 14:58:50,,,03 Jun 2019 14:59:21,31184,97,9,236,,,,0.6279297,,,1534,0,886,16383,0,1258,,
https://dt-secure.videohub.tv/v1/usync/tr?userId=,COMPLETE,303,https,GET,image/gif,/127.0.0.1,51932,dt-secure.videohub.tv/67.226.210.15,443,,03 Jun 2019 14:58:50,03 Jun 2019 14:58:50,03 Jun 2019 14:58:50,03 Jun 2019 14:58:50,11,,,,0,0,11,37.286133,0.0,0.0,,377,,,0,43,,
https://dt-secure.videohub.tv/ssframework/tvuid?a=set&UI=,COMPLETE,400,https,GET,image/gif,/127.0.0.1,51957,dt-secure.videohub.tv/67.226.210.15,443,,03 Jun 2019 14:58:50,03 Jun 2019 14:58:50,03 Jun 2019 14:58:50,03 Jun 2019 14:58:50,11,,,,0,0,11,37.99707,0.0,0.0,,385,,,0,43,,
https://dt-secure.videohub.tv/v1/usync/ex?userId=,COMPLETE,303,https,GET,image/gif,/127.0.0.1,51956,dt-secure.videohub.tv/67.226.210.15,443,,03 Jun 2019 14:58:50,03 Jun 2019 14:58:50,03 Jun 2019 14:58:50,03 Jun 2019 14:58:50,12,,,,0,0,12,34.179688,0.0,0.0,,377,,,0,43,,
https://dt-secure.videohub.tv/v1/usync/lo?userId=,COMPLETE,303,https,GET,image/gif,/127.0.0.1,51960,dt-secure.videohub.tv/67.226.210.15,443,,03 Jun 2019 14:58:50,03 Jun 2019 14:58:50,03 Jun 2019 14:58:50,03 Jun 2019 14:58:50,11,,,,0,0,11,37.286133,0.0,0.0,,377,,,0,43,,
https://sync.1rx.io,COMPLETE,200,https,CONNECT,,/127.0.0.1,51970,sync.1rx.io/8.41.222.150,443,,03 Jun 2019 14:58:50,,,03 Jun 2019 14:59:21,31079,48,1,249,,,,0.87109375,,,1094,0,796,24907,0,936,,
https://l0-secure.videohub.tv/ssframework/log/log.png?EC=7&a=logitemaction&nolog=1&ssPD=tremorvideodsp.com&Uzip=__postalCode__&CI=3502456&ADI=7587606&PRI=d1aa2eb3-1c3c-4a62-82de-f162df226185&Udma=__dma__&ssMLVer=rml_app_1.9.0&Uctry=__country__&AVI=425726&ssASVer=2.0&PBI=3500226&RI=1&Ust=__state__&NI=1344&admode=preroll&ssDsC=mobiletablet&ssRnd=404140281&Eipct=0&EvaF=1&EiN=1,COMPLETE,200,https,GET,image/gif,/127.0.0.1,51971,l0-secure.videohub.tv/67.226.210.12,443,,03 Jun 2019 14:58:50,03 Jun 2019 14:58:50,03 Jun 2019 14:58:50,03 Jun 2019 14:58:50,62,1,11,33,1,1,15,434.82227,1654.2969,25304.688,990,704,,25869,0,43,,
https://dt-secure.videohub.tv/v1/usync/dd?userId=,COMPLETE,303,https,GET,image/gif,/127.0.0.1,51932,dt-secure.videohub.tv/67.226.210.15,443,,03 Jun 2019 14:58:50,03 Jun 2019 14:58:50,03 Jun 2019 14:58:50,03 Jun 2019 14:58:50,10,,,,0,0,10,41.015625,0.0,0.0,,377,,,0,43,,
https://x.bidswitch.net,COMPLETE,200,https,CONNECT,,/127.0.0.1,51973,x.bidswitch.net/35.190.175.111,443,,03 Jun 2019 14:58:50,,,03 Jun 2019 14:59:00,10508,7,20,255,,,,3.584961,,,1146,0,405,36284,0,743,,
https://sync.springserve.com,COMPLETE,200,https,CONNECT,,/127.0.0.1,51974,sync.springserve.com/18.214.171.42,443,,03 Jun 2019 14:58:50,,,03 Jun 2019 14:59:21,31103,71,9,230,,,,1.0595703,,,1499,0,397,31653,0,212,,
https://cs.lkqd.net,COMPLETE,200,https,CONNECT,,/127.0.0.1,51972,cs.lkqd.net/146.20.132.209,443,,03 Jun 2019 14:58:50,,,03 Jun 2019 14:59:21,31098,6,10,257,,,,1.3876953,,,1322,0,396,42000,0,482,,
https://dt-secure.videohub.tv/v1/usync/ds?userId=,COMPLETE,303,https,GET,image/gif,/127.0.0.1,51959,dt-secure.videohub.tv/67.226.210.15,443,,03 Jun 2019 14:58:50,03 Jun 2019 14:58:50,03 Jun 2019 14:58:50,03 Jun 2019 14:58:50,9,,,,0,0,9,45.572266,0.0,0.0,,377,,,0,43,,
https://dt-secure.videohub.tv/v1/usync/lrjs?userId=,COMPLETE,303,https,GET,image/gif,/127.0.0.1,51957,dt-secure.videohub.tv/67.226.210.15,443,,03 Jun 2019 14:58:50,03 Jun 2019 14:58:50,03 Jun 2019 14:58:50,03 Jun 2019 14:58:50,10,,,,0,0,10,41.210938,0.0,0.0,,379,,,0,43,,
https://dt-secure.videohub.tv/v1/usync/db?userId=&deviceId=unknown&screenType=mobiletablet&osType=iOS&rand=1896209925,COMPLETE,303,https,GET,image/gif,/127.0.0.1,51958,dt-secure.videohub.tv/67.226.210.15,443,,03 Jun 2019 14:58:50,03 Jun 2019 14:58:50,03 Jun 2019 14:58:50,03 Jun 2019 14:58:50,12,,,,0,0,12,39.71289,0.0,0.0,,445,,,0,43,,
https://tps30.doubleverify.com/visit.jpg?ctx=42674&cmp=DV069178&sid=1111&plc=2018011501&advid=3819603&adsrv=0&tagtype=&dvtagver=6.1.img&DVP_PP_REP=1&DVP_IQM_ID=16&DVP_DV_TT=2&DVP_DV_CT=2&DVP_TR_SSP=&DVP_TR_PUB=[PUBLISHER_ID]&DVP_TR_SITE=[SUPPLY_ID]&DVP_TR_ADV=425726&DVP_TR_CMP=3502456&DVP_TR_PLC=3502456&turl=tremorvideodsp.com&DVP_PP_BUNDLE_ID=&DVP_TR_COST=,COMPLETE,200,https,GET,image/jpeg,/127.0.0.1,51976,tps30.doubleverify.com/204.154.111.104,443,,03 Jun 2019 14:58:50,03 Jun 2019 14:58:50,03 Jun 2019 14:58:50,03 Jun 2019 14:58:50,197,1,3,3,0,46,144,9.135742,0.0,9.956055,687,687,,327,0,142,,53.4%
https://dt-secure.videohub.tv/v1/usync/al?userId=,COMPLETE,303,https,GET,image/gif,/127.0.0.1,51960,dt-secure.videohub.tv/67.226.210.15,443,,03 Jun 2019 14:58:50,03 Jun 2019 14:58:50,03 Jun 2019 14:58:50,03 Jun 2019 14:58:50,15,,,,1,1,13,27.34375,368.16406,41.992188,,377,,,0,43,,
https://dt-secure.videohub.tv/v1/usync/kx?userId=,COMPLETE,303,https,GET,image/gif,/127.0.0.1,51956,dt-secure.videohub.tv/67.226.210.15,443,,03 Jun 2019 14:58:50,03 Jun 2019 14:58:50,03 Jun 2019 14:58:50,03 Jun 2019 14:58:50,15,,,,1,0,14,27.34375,368.16406,0.0,,377,,,0,43,,
https://partners.tremorhub.com,COMPLETE,200,https,CONNECT,,/127.0.0.1,51980,partners.tremorhub.com/34.233.214.90,443,,03 Jun 2019 14:58:50,,,03 Jun 2019 14:59:21,31071,57,8,230,,,,1.0839844,,,1509,0,387,32079,0,516,,
https://pixel.rubiconproject.com,COMPLETE,200,https,CONNECT,,/127.0.0.1,51982,pixel.rubiconproject.com/8.43.72.21,443,,03 Jun 2019 14:58:50,,,03 Jun 2019 14:59:03,12932,82,11,264,,,,1.5019531,,,1170,0,890,16516,0,1322,,
https://dt-secure.videohub.tv/v1/usync/lr?userId=,COMPLETE,303,https,GET,image/gif,/127.0.0.1,51932,dt-secure.videohub.tv/67.226.210.15,443,,03 Jun 2019 14:58:50,03 Jun 2019 14:58:50,03 Jun 2019 14:58:50,03 Jun 2019 14:58:50,16,,,,0,1,15,25.634766,0.0,41.992188,,377,,,0,43,,
https://dt-secure.videohub.tv/v1/usync/bk?userId=,COMPLETE,303,https,GET,image/gif,/127.0.0.1,51959,dt-secure.videohub.tv/67.226.210.15,443,,03 Jun 2019 14:58:50,03 Jun 2019 14:58:50,03 Jun 2019 14:58:50,03 Jun 2019 14:58:50,10,,,,0,0,10,41.015625,0.0,0.0,,377,,,0,43,,
https://simage2.pubmatic.com,COMPLETE,200,https,CONNECT,,/127.0.0.1,51983,simage2.pubmatic.com/162.248.19.147,443,,03 Jun 2019 14:58:50,,,03 Jun 2019 14:59:21,31040,48,2,226,,,,0.6923828,,,1499,0,455,19257,0,827,,
https://bcp.crwdcntrl.net,COMPLETE,200,https,CONNECT,,/127.0.0.1,51986,bcp.crwdcntrl.net/54.86.187.106,443,,03 Jun 2019 14:58:50,,,03 Jun 2019 14:59:21,31027,8,8,247,,,,1.0771484,,,1484,0,797,31179,0,792,,
https://loadm.exelator.com,COMPLETE,200,https,CONNECT,,/127.0.0.1,51985,loadm.exelator.com/147.75.39.192,443,,03 Jun 2019 14:58:50,,,03 Jun 2019 14:59:00,10509,86,2,250,,,,3.2285156,,,1122,0,816,31294,0,1521,,
https://dt-secure.videohub.tv/v1/usync/ns?userId=,COMPLETE,303,https,GET,image/gif,/127.0.0.1,51957,dt-secure.videohub.tv/67.226.210.15,443,,03 Jun 2019 14:58:50,03 Jun 2019 14:58:50,03 Jun 2019 14:58:50,03 Jun 2019 14:58:50,13,,,,0,0,13,31.549805,0.0,0.0,,377,,,0,43,,
https://idpix.media6degrees.com,COMPLETE,200,https,CONNECT,,/127.0.0.1,51988,idpix.media6degrees.com/204.2.197.211,443,,03 Jun 2019 14:58:50,,,03 Jun 2019 14:58:50,362,46,2,246,,,,72.27051,,,1514,0,431,24075,0,770,,
https://objects-secure.tremormedia.com/net/js/lr.js?partner_id=28a7ebd71689308d2c54d9565db631b2,COMPLETE,200,https,GET,application/javascript,/127.0.0.1,51927,objects-secure.tremormedia.com/104.110.194.47,443,,03 Jun 2019 14:58:50,03 Jun 2019 14:58:50,03 Jun 2019 14:58:50,03 Jun 2019 14:58:50,10,,,,1,1,8,117.28516,413.08594,759.7656,,423,,,0,778,,57.1%
https://dpm.demdex.net,COMPLETE,200,https,CONNECT,,/127.0.0.1,51989,dpm.demdex.net/52.72.198.167,443,,03 Jun 2019 14:58:50,,,03 Jun 2019 14:59:21,30983,9,8,237,,,,0.6845703,,,1469,0,804,18303,0,1155,,
https://beacon.krxd.net,COMPLETE,200,https,CONNECT,,/127.0.0.1,51997,beacon.krxd.net/23.21.56.191,443,,03 Jun 2019 14:58:50,,,03 Jun 2019 14:59:21,30931,7,9,261,,,,1.0566406,,,1474,0,414,31113,0,482,,
https://sync.alphonso.tv,COMPLETE,200,https,CONNECT,,/127.0.0.1,51995,sync.alphonso.tv/104.129.168.238,443,,03 Jun 2019 14:58:50,,,03 Jun 2019 14:59:21,30930,61,5,245,,,,0.953125,,,1479,0,391,27865,0,471,,
https://p.adsymptotic.com,COMPLETE,200,https,CONNECT,,/127.0.0.1,51993,p.adsymptotic.com/52.5.201.152,443,,03 Jun 2019 14:58:50,,,03 Jun 2019 14:59:21,30918,62,9,233,,,,0.7138672,,,1484,0,944,19281,0,921,,
https://stags.bluekai.com,COMPLETE,200,https,CONNECT,,/127.0.0.1,52000,stags.bluekai.com/96.7.23.53,443,,03 Jun 2019 14:58:50,,,03 Jun 2019 14:59:21,30897,3,11,261,,,,0.7421875,,,1484,0,459,21253,0,295,,
https://idsync.rlcdn.com,COMPLETE,200,https,CONNECT,,/127.0.0.1,52002,idsync.rlcdn.com/34.95.92.78,443,,03 Jun 2019 14:58:50,,,03 Jun 2019 14:59:21,30878,5,3,232,,,,0.87890625,,,1347,0,838,24510,0,1107,,
https://aa.agkn.com,COMPLETE,200,https,CONNECT,,/127.0.0.1,52003,aa.agkn.com/63.251.88.56,443,,03 Jun 2019 14:58:50,,,03 Jun 2019 14:58:50,329,98,11,180,,,,68.65234,,,1454,0,402,20762,0,511,,
https://bsw.digitru.st,COMPLETE,200,https,CONNECT,,/127.0.0.1,52009,bsw.digitru.st/35.190.175.111,443,,03 Jun 2019 14:58:50,,,03 Jun 2019 14:59:01,10393,84,21,67,,,,3.508789,,,1142,0,405,35144,0,658,,
https://d.agkn.com,COMPLETE,200,https,CONNECT,,/127.0.0.1,52011,d.agkn.com/54.85.113.113,443,,03 Jun 2019 14:58:50,,,03 Jun 2019 14:59:21,30537,78,8,40,,,,0.8769531,,,1449,0,384,25023,0,572,,
https://pippio.com,COMPLETE,200,https,CONNECT,,/127.0.0.1,52012,pippio.com/107.178.254.65,443,,03 Jun 2019 14:58:50,,,03 Jun 2019 14:59:21,30509,47,2,19,,,,0.8691406,,,1317,0,751,23570,0,1536,,
https://us-east-sync.bidswitch.net,COMPLETE,200,https,CONNECT,,/127.0.0.1,52014,us-east-sync.bidswitch.net/104.196.190.141,443,,03 Jun 2019 14:58:50,,,03 Jun 2019 14:59:01,10266,6,21,70,,,,3.671875,,,1190,0,430,36284,0,700,,
https://cm.g.doubleclick.net,COMPLETE,200,https,CONNECT,,/127.0.0.1,52017,cm.g.doubleclick.net/172.217.10.98,443,,03 Jun 2019 14:58:50,,,03 Jun 2019 14:59:21,30395,55,2,62,,,,0.5488281,,,1367,0,424,14345,0,969,,
https://tag.apxlv.com,COMPLETE,200,https,CONNECT,,/127.0.0.1,52019,tag.apxlv.com/162.223.54.6,443,,03 Jun 2019 14:58:51,,,03 Jun 2019 14:59:22,31276,5,7,46,,,,0.86328125,,,1102,0,368,25553,0,647,,
https://tag.cogocast.net,COMPLETE,200,https,CONNECT,,/127.0.0.1,52021,tag.cogocast.net/54.152.25.88,443,,03 Jun 2019 14:58:51,,,03 Jun 2019 14:59:22,31194,6,9,37,,,,1.078125,,,1479,0,502,31563,0,923,,
https://gpush.cogocast.net,COMPLETE,200,https,CONNECT,,/127.0.0.1,52023,gpush.cogocast.net/162.223.54.16,443,,03 Jun 2019 14:58:51,,,03 Jun 2019 14:58:51,81,50,9,,,,,2.616211,,,210,0,0,7,0,0,,
https://objects-secure.tremormedia.com/net/js/adchoicesappicon.min.js?iconPosition=top-left&optOut=&iconClick=&playerWidth=770&playerHeight=1026&sources=&country=us,COMPLETE,200,https,GET,application/javascript,/127.0.0.1,51927,objects-secure.tremormedia.com/104.110.194.47,443,,03 Jun 2019 14:58:51,03 Jun 2019 14:58:51,03 Jun 2019 14:58:51,03 Jun 2019 14:58:51,11,,,,0,1,10,1549.627,0.0,16622.07,,434,,,0,17021,,45.7%
https://l0-secure.videohub.tv/ssframework/log/log.png?EC=40&a=logitemaction&nolog=1&ssPD=tremorvideodsp.com&Uzip=__postalCode__&CI=3502456&ADI=7587606&PRI=d1aa2eb3-1c3c-4a62-82de-f162df226185&Udma=__dma__&ssMLVer=rml_app_1.9.0&Uctry=__country__&AVI=425726&ssASVer=2.0&PBI=3500226&RI=1&Ust=__state__&NI=1344&admode=preroll&ssDsC=mobiletablet&ssRnd=868754426&EvaF=1&pctVw=0,COMPLETE,200,https,GET,image/gif,/127.0.0.1,51944,l0-secure.videohub.tv/67.226.210.12,443,,03 Jun 2019 14:58:51,03 Jun 2019 14:58:51,03 Jun 2019 14:58:51,03 Jun 2019 14:58:51,15,,,,0,1,14,48.30664,0.0,41.992188,,699,,,0,43,,
https://l0-secure.videohub.tv/ssframework/log/log.png?EC=7&a=logitemaction&nolog=1&ssPD=tremorvideodsp.com&Uzip=__postalCode__&CI=3502456&ADI=7587606&PRI=d1aa2eb3-1c3c-4a62-82de-f162df226185&Udma=__dma__&ssMLVer=rml_app_1.9.0&Uctry=__country__&AVI=425726&ssASVer=2.0&PBI=3500226&RI=1&Ust=__state__&NI=1344&admode=preroll&ssDsC=mobiletablet&ssRnd=1250985437&Eipct=25&EiN=1,COMPLETE,200,https,GET,image/gif,/127.0.0.1,51944,l0-secure.videohub.tv/67.226.210.12,443,,03 Jun 2019 14:58:53,03 Jun 2019 14:58:53,03 Jun 2019 14:58:53,03 Jun 2019 14:58:53,14,,,,0,1,13,51.757812,0.0,41.992188,,699,,,0,43,,
https://s.tremorvideodsp.com/q/qa.gif?param1=screen_first_quartile,COMPLETE,200,https,GET,image/gif,/127.0.0.1,51925,s.tremorvideodsp.com/23.48.39.122,443,,03 Jun 2019 14:58:53,03 Jun 2019 14:58:53,03 Jun 2019 14:58:53,03 Jun 2019 14:58:53,20,,,,0,1,19,21.33789,0.0,41.992188,,394,,,0,43,,
https://s.tremorvideodsp.com/q/qa.gif?param1=creative_first_quartile,COMPLETE,200,https,GET,image/gif,/127.0.0.1,51929,s.tremorvideodsp.com/23.48.39.122,443,,03 Jun 2019 14:58:53,03 Jun 2019 14:58:53,03 Jun 2019 14:58:53,03 Jun 2019 14:58:53,17,,,,0,1,16,25.217773,0.0,41.992188,,396,,,0,43,,
https://s.tremorvideodsp.com/q/qa.gif?param1=screen_click,COMPLETE,200,https,GET,image/gif,/127.0.0.1,51942,s.tremorvideodsp.com/23.48.39.122,443,,03 Jun 2019 14:58:53,03 Jun 2019 14:58:53,03 Jun 2019 14:58:53,03 Jun 2019 14:58:53,28,,,,0,0,28,14.926758,0.0,0.0,,385,,,0,43,,
https://s.tremorvideodsp.com/q/qa.gif?param1=creative_click,COMPLETE,200,https,GET,image/gif,/127.0.0.1,51943,s.tremorvideodsp.com/23.48.39.122,443,,03 Jun 2019 14:58:53,03 Jun 2019 14:58:53,03 Jun 2019 14:58:53,03 Jun 2019 14:58:53,22,,,,0,0,22,19.086914,0.0,0.0,,387,,,0,43,,
https://l0-secure.videohub.tv/ssframework/log/log.png?EC=2&a=logitemaction&nolog=1&ssPD=tremorvideodsp.com&Uzip=__postalCode__&CI=3502456&ADI=7587606&PRI=d1aa2eb3-1c3c-4a62-82de-f162df226185&Udma=__dma__&ssMLVer=rml_app_1.9.0&Uctry=__country__&AVI=425726&ssASVer=2.0&PBI=3500226&RI=1&Ust=__state__&NI=1344&admode=preroll&ssDsC=mobiletablet&ssRnd=1484429342,COMPLETE,200,https,GET,image/gif,/127.0.0.1,51971,l0-secure.videohub.tv/67.226.210.12,443,,03 Jun 2019 14:58:53,03 Jun 2019 14:58:53,03 Jun 2019 14:58:53,03 Jun 2019 14:58:53,13,,,,0,1,12,54.612305,0.0,41.992188,,684,,,0,43,,
https://l0-secure.videohub.tv/ssframework/log/log.png?EC=4&a=logitemaction&nolog=1&ssPD=tremorvideodsp.com&Uzip=__postalCode__&CI=3502456&ADI=7587606&PRI=d1aa2eb3-1c3c-4a62-82de-f162df226185&Udma=__dma__&ssMLVer=rml_app_1.9.0&Uctry=__country__&AVI=425726&ssASVer=2.0&PBI=3500226&RI=1&Ust=__state__&NI=1344&admode=preroll&ssDsC=mobiletablet&ssRnd=195153633&EiN=1,COMPLETE,200,https,GET,image/gif,/127.0.0.1,51944,l0-secure.videohub.tv/67.226.210.12,443,,03 Jun 2019 14:58:53,03 Jun 2019 14:58:53,03 Jun 2019 14:58:53,03 Jun 2019 14:58:53,12,,,,0,0,12,59.570312,0.0,0.0,,689,,,0,43,,
https://www.tremorvideodsp.com,COMPLETE,200,https,CONNECT,,/127.0.0.1,52025,www.tremorvideodsp.com/52.2.175.150,443,,03 Jun 2019 14:58:53,,,03 Jun 2019 14:59:24,30310,157,12,83,,,,0.47460938,,,1424,0,280,12301,0,744,,
https://dt.scanscout.com,COMPLETE,200,https,CONNECT,,/127.0.0.1,52026,dt.scanscout.com/67.226.210.15,443,,03 Jun 2019 14:58:53,,,03 Jun 2019 14:58:58,5104,4,11,32,,,,6.7402344,,,3096,0,536,31298,0,302,,
https://www.googletagmanager.com,RECEIVING_REQUEST_BODY,200,https,CONNECT,,/127.0.0.1,52028,www.googletagmanager.com/172.217.10.40,443,,03 Jun 2019 14:58:53,,,,76041,89,3,,,,,0.005859375,,,517,0,0,,0,0,,
https://www.tremorvideodsp.com,COMPLETE,200,https,CONNECT,,/127.0.0.1,52029,www.tremorvideodsp.com/52.2.175.150,443,,03 Jun 2019 14:58:53,,,03 Jun 2019 14:59:24,31172,94,10,51,,,,0.6503906,,,3024,0,3556,12406,0,1799,,
https://api.smoot.apple.com,COMPLETE,200,https,CONNECT,,/127.0.0.1,52030,api.smoot.apple.com/17.249.105.246,443,,03 Jun 2019 14:58:53,,,03 Jun 2019 14:59:24,30436,78,77,183,,,,0.9980469,,,1557,0,322,21704,0,7543,,
https://www.tremorvideodsp.com,COMPLETE,200,https,CONNECT,,/127.0.0.1,52037,www.tremorvideodsp.com/52.2.175.150,443,,03 Jun 2019 14:58:53,,,03 Jun 2019 14:59:24,30972,2,14,40,,,,0.39648438,,,1584,0,567,10148,0,301,,
https://www.tremorvideodsp.com,COMPLETE,200,https,CONNECT,,/127.0.0.1,52035,www.tremorvideodsp.com/52.2.175.150,443,,03 Jun 2019 14:58:53,,,03 Jun 2019 14:59:24,30972,4,12,60,,,,0.39648438,,,1584,0,557,10148,0,302,,
https://www.tremorvideodsp.com,COMPLETE,200,https,CONNECT,,/127.0.0.1,52036,www.tremorvideodsp.com/52.2.175.150,443,,03 Jun 2019 14:58:53,,,03 Jun 2019 14:59:24,30972,10,9,104,,,,0.39257812,,,1584,0,512,10148,0,215,,
https://www.google-analytics.com,RECEIVED_RESPONSE_HEADER,200,https,CONNECT,,/127.0.0.1,52041,www.google-analytics.com/172.217.6.206,443,,03 Jun 2019 14:58:54,,,,74949,2,6,,,,,0.005859375,,,517,0,0,,0,0,,
https://stats.g.doubleclick.net,RECEIVING_REQUEST_BODY,200,https,CONNECT,,/127.0.0.1,52043,stats.g.doubleclick.net/173.194.206.156,443,,03 Jun 2019 14:58:55,,,,74745,2,39,,,,,0.005859375,,,517,0,0,,0,0,,
https://www.google.com,RECEIVED_RESPONSE_HEADER,200,https,CONNECT,,/127.0.0.1,52045,www.google.com/172.217.11.36,443,,03 Jun 2019 14:58:55,,,,74600,2,2,,,,,0.005859375,,,517,0,0,,0,0,,
https://s.tremorvideodsp.com/q/qa.gif?param1=screen_click,COMPLETE,200,https,GET,image/gif,/127.0.0.1,51925,s.tremorvideodsp.com/23.48.39.122,443,,03 Jun 2019 14:59:07,03 Jun 2019 14:59:07,03 Jun 2019 14:59:07,03 Jun 2019 14:59:07,37,,,,0,0,37,11.295898,0.0,0.0,,385,,,0,43,,
https://s.tremorvideodsp.com/q/qa.gif?param1=creative_click,COMPLETE,200,https,GET,image/gif,/127.0.0.1,51929,s.tremorvideodsp.com/23.48.39.122,443,,03 Jun 2019 14:59:07,03 Jun 2019 14:59:07,03 Jun 2019 14:59:07,03 Jun 2019 14:59:07,33,,,,0,0,33,12.724609,0.0,0.0,,387,,,0,43,,
https://l0-secure.videohub.tv/ssframework/log/log.png?EC=2&a=logitemaction&nolog=1&ssPD=tremorvideodsp.com&Uzip=__postalCode__&CI=3502456&ADI=7587606&PRI=d1aa2eb3-1c3c-4a62-82de-f162df226185&Udma=__dma__&ssMLVer=rml_app_1.9.0&Uctry=__country__&AVI=425726&ssASVer=2.0&PBI=3500226&RI=1&Ust=__state__&NI=1344&admode=preroll&ssDsC=mobiletablet&ssRnd=1484429342,COMPLETE,200,https,GET,image/gif,/127.0.0.1,51944,l0-secure.videohub.tv/67.226.210.12,443,,03 Jun 2019 14:59:07,03 Jun 2019 14:59:07,03 Jun 2019 14:59:07,03 Jun 2019 14:59:07,119,,14,33,47,0,25,226.87402,36.02832,0.0,1050,684,,25869,0,43,,
https://l0-secure.videohub.tv/ssframework/log/log.png?EC=7&a=logitemaction&nolog=1&ssPD=tremorvideodsp.com&Uzip=__postalCode__&CI=3502456&ADI=7587606&PRI=d1aa2eb3-1c3c-4a62-82de-f162df226185&Udma=__dma__&ssMLVer=rml_app_1.9.0&Uctry=__country__&AVI=425726&ssASVer=2.0&PBI=3500226&RI=1&Ust=__state__&NI=1344&admode=preroll&ssDsC=mobiletablet&ssRnd=1057574011&Eipct=50&EiN=1,COMPLETE,200,https,GET,image/gif,/127.0.0.1,51944,l0-secure.videohub.tv/67.226.210.12,443,,03 Jun 2019 14:59:11,03 Jun 2019 14:59:11,03 Jun 2019 14:59:11,03 Jun 2019 14:59:11,12,,,,1,0,11,60.38379,682.6172,0.0,,699,,,0,43,,
https://s.tremorvideodsp.com/q/qa.gif?param1=creative_second_quartile,COMPLETE,200,https,GET,image/gif,/127.0.0.1,51929,s.tremorvideodsp.com/23.48.39.122,443,,03 Jun 2019 14:59:11,03 Jun 2019 14:59:11,03 Jun 2019 14:59:11,03 Jun 2019 14:59:11,17,,,,1,1,15,25.27539,387.6953,41.992188,,397,,,0,43,,
https://s.tremorvideodsp.com/q/qa.gif?param1=screen_second_quartile,COMPLETE,200,https,GET,image/gif,/127.0.0.1,51925,s.tremorvideodsp.com/23.48.39.122,443,,03 Jun 2019 14:59:11,03 Jun 2019 14:59:11,03 Jun 2019 14:59:11,03 Jun 2019 14:59:11,25,,,,0,0,25,17.109375,0.0,0.0,,395,,,0,43,,
https://l0-secure.videohub.tv/ssframework/log/log.png?EC=7&a=logitemaction&nolog=1&ssPD=tremorvideodsp.com&Uzip=__postalCode__&CI=3502456&ADI=7587606&PRI=d1aa2eb3-1c3c-4a62-82de-f162df226185&Udma=__dma__&ssMLVer=rml_app_1.9.0&Uctry=__country__&AVI=425726&ssASVer=2.0&PBI=3500226&RI=1&Ust=__state__&NI=1344&admode=preroll&ssDsC=mobiletablet&ssRnd=592490664&Eipct=75&EiN=1,COMPLETE,200,https,GET,image/gif,/127.0.0.1,51944,l0-secure.videohub.tv/67.226.210.12,443,,03 Jun 2019 14:59:15,03 Jun 2019 14:59:15,03 Jun 2019 14:59:15,03 Jun 2019 14:59:15,12,,,,0,0,12,60.302734,0.0,0.0,,698,,,0,43,,
https://s.tremorvideodsp.com/q/qa.gif?param1=screen_third_quartile,COMPLETE,200,https,GET,image/gif,/127.0.0.1,51925,s.tremorvideodsp.com/23.48.39.122,443,,03 Jun 2019 14:59:15,03 Jun 2019 14:59:15,03 Jun 2019 14:59:15,03 Jun 2019 14:59:15,15,,,,0,0,15,28.450195,0.0,0.0,,394,,,0,43,,
https://s.tremorvideodsp.com/q/qa.gif?param1=creative_third_quartile,COMPLETE,200,https,GET,image/gif,/127.0.0.1,51929,s.tremorvideodsp.com/23.48.39.122,443,,03 Jun 2019 14:59:15,03 Jun 2019 14:59:15,03 Jun 2019 14:59:15,03 Jun 2019 14:59:15,16,,,,0,0,16,26.793945,0.0,0.0,,396,,,0,43,,
https://s.tremorvideodsp.com/q/qa.gif?param1=viewable_completion,COMPLETE,200,https,GET,image/gif,/127.0.0.1,51925,s.tremorvideodsp.com/23.48.39.122,443,,03 Jun 2019 14:59:18,03 Jun 2019 14:59:18,03 Jun 2019 14:59:18,03 Jun 2019 14:59:18,17,,,,0,0,17,24.988281,0.0,0.0,,392,,,0,43,,
https://l0-secure.videohub.tv/ssframework/log/log.png?EC=38&a=logitemaction&nolog=1&ssPD=tremorvideodsp.com&Uzip=__postalCode__&CI=3502456&ADI=7587606&PRI=d1aa2eb3-1c3c-4a62-82de-f162df226185&Udma=__dma__&ssMLVer=rml_app_1.9.0&Uctry=__country__&AVI=425726&ssASVer=2.0&PBI=3500226&RI=1&Ust=__state__&NI=1344&admode=preroll&ssDsC=mobiletablet&ssRnd=547688354&EvaF=1&pctVw=100,COMPLETE,200,https,GET,image/gif,/127.0.0.1,51944,l0-secure.videohub.tv/67.226.210.12,443,,03 Jun 2019 14:59:18,03 Jun 2019 14:59:18,03 Jun 2019 14:59:18,03 Jun 2019 14:59:18,12,,,,0,1,11,60.546875,0.0,41.992188,,701,,,0,43,,
https://s.tremorvideodsp.com/q/qa.gif?param1=creative_viewable_completion,COMPLETE,200,https,GET,image/gif,/127.0.0.1,51929,s.tremorvideodsp.com/23.48.39.122,443,,03 Jun 2019 14:59:18,03 Jun 2019 14:59:18,03 Jun 2019 14:59:18,03 Jun 2019 14:59:18,17,,,,0,0,17,25.504883,0.0,0.0,,401,,,0,43,,
https://l0-secure.videohub.tv/ssframework/log/log.png?EC=7&a=logitemaction&nolog=1&ssPD=tremorvideodsp.com&Uzip=__postalCode__&CI=3502456&ADI=7587606&PRI=d1aa2eb3-1c3c-4a62-82de-f162df226185&Udma=__dma__&ssMLVer=rml_app_1.9.0&Uctry=__country__&AVI=425726&ssASVer=2.0&PBI=3500226&RI=1&Ust=__state__&NI=1344&admode=preroll&ssDsC=mobiletablet&ssRnd=799757717&Eipct=100&RcpF=1&EiN=1,COMPLETE,200,https,GET,image/gif,/127.0.0.1,51944,l0-secure.videohub.tv/67.226.210.12,443,,03 Jun 2019 14:59:19,03 Jun 2019 14:59:19,03 Jun 2019 14:59:19,03 Jun 2019 14:59:19,67,,,,0,0,67,10.916992,0.0,0.0,,706,,,0,43,,
https://s.tremorvideodsp.com/q/qa.gif?param1=screen_completion,COMPLETE,200,https,GET,image/gif,/127.0.0.1,51925,s.tremorvideodsp.com/23.48.39.122,443,,03 Jun 2019 14:59:19,03 Jun 2019 14:59:19,03 Jun 2019 14:59:19,03 Jun 2019 14:59:19,14,,,,0,0,14,30.203125,0.0,0.0,,390,,,0,43,,
https://s.tremorvideodsp.com/q/qa.gif?param1=creative_completion,COMPLETE,200,https,GET,image/gif,/127.0.0.1,51929,s.tremorvideodsp.com/23.48.39.122,443,,03 Jun 2019 14:59:19,03 Jun 2019 14:59:19,03 Jun 2019 14:59:19,03 Jun 2019 14:59:19,30,,,,0,0,30,14.160156,0.0,0.0,,392,,,0,43,,
https://s.tremorvideodsp.com/q/qa.gif?param1=completion,COMPLETE,200,https,GET,image/gif,/127.0.0.1,51942,s.tremorvideodsp.com/23.48.39.122,443,,03 Jun 2019 14:59:19,03 Jun 2019 14:59:19,03 Jun 2019 14:59:19,03 Jun 2019 14:59:19,16,,,,0,0,16,26.000977,0.0,0.0,,383,,,0,43,,
https://s.tremorvideodsp.com/q/video1_small.mp4,COMPLETE,206,https,GET,video/mp4,/127.0.0.1,52048,s.tremorvideodsp.com/23.48.39.121,443,,03 Jun 2019 14:59:19,03 Jun 2019 14:59:19,03 Jun 2019 14:59:19,03 Jun 2019 14:59:19,146,80,9,26,0,0,31,110.143555,0.0,0.0,1058,358,,15049,0,2,,
https://s.tremorvideodsp.com/q/video1_small.mp4,COMPLETE,206,https,GET,video/mp4,/127.0.0.1,52048,s.tremorvideodsp.com/23.48.39.121,443,,03 Jun 2019 14:59:19,03 Jun 2019 14:59:19,03 Jun 2019 14:59:19,03 Jun 2019 14:59:19,62,,,,0,12,50,1037.959,0.0,5333.333,,362,,,0,65536,,
https://s.tremorvideodsp.com/q/video1_small.mp4,COMPLETE,206,https,GET,video/mp4,/127.0.0.1,52048,s.tremorvideodsp.com/23.48.39.121,443,,03 Jun 2019 14:59:19,03 Jun 2019 14:59:19,03 Jun 2019 14:59:19,03 Jun 2019 14:59:19,36,,,,0,7,29,1787.7598,0.0,9142.856,,368,,,0,65536,,
https://s.tremorvideodsp.com/q/video1_small.mp4,COMPLETE,206,https,GET,video/mp4,/127.0.0.1,52050,s.tremorvideodsp.com/23.48.39.121,443,,03 Jun 2019 14:59:19,03 Jun 2019 14:59:19,03 Jun 2019 14:59:19,03 Jun 2019 14:59:20,745,2,9,26,0,681,27,12986.199,0.0,14204.693,986,368,,14959,0,9890599,,
https://s.tremorvideodsp.com/q/video1_small.mp4,COMPLETE,206,https,GET,video/mp4,/127.0.0.1,52048,s.tremorvideodsp.com/23.48.39.121,443,,03 Jun 2019 14:59:19,03 Jun 2019 14:59:19,03 Jun 2019 14:59:19,03 Jun 2019 14:59:19,31,,,,0,5,26,2076.1084,0.0,12800.0,,368,,,0,65536,,
https://jwpltx.com,COMPLETE,200,https,CONNECT,,/127.0.0.1,52052,jwpltx.com/52.1.12.241,443,,03 Jun 2019 14:59:20,,,03 Jun 2019 14:59:55,35294,78,13,52,,,,0.9580078,,,1449,0,1204,31731,0,264,,
https://www.tremorvideodsp.com,EXCEPTION,200,https,CONNECT,,/127.0.0.1,52054,www.tremorvideodsp.com/52.2.175.150,443,java.net.SocketException: Broken pipe (Write failed),03 Jun 2019 14:59:24,,,03 Jun 2019 14:59:24,178,2,8,53,,,,320.5703,,,1584,0,268,10148,0,46431,,
https://entitlements.jwplayer.com,COMPLETE,200,https,CONNECT,,/127.0.0.1,52056,entitlements.jwplayer.com/72.21.81.189,443,,03 Jun 2019 14:59:25,,,03 Jun 2019 14:59:55,30204,2,2,54,,,,1.1582031,,,1524,0,317,33541,0,464,,
https://s.tremorvideodsp.com/q/video1_small.mp4,COMPLETE,206,https,GET,video/mp4,/127.0.0.1,52058,s.tremorvideodsp.com/23.48.39.121,443,,03 Jun 2019 14:59:25,03 Jun 2019 14:59:25,03 Jun 2019 14:59:25,03 Jun 2019 14:59:25,64,2,8,26,0,1,27,251.26562,0.0,14698.242,1058,358,,15049,0,2,,
https://s.tremorvideodsp.com/q/video1_small.mp4,COMPLETE,206,https,GET,video/mp4,/127.0.0.1,52058,s.tremorvideodsp.com/23.48.39.121,443,,03 Jun 2019 14:59:25,03 Jun 2019 14:59:25,03 Jun 2019 14:59:25,03 Jun 2019 14:59:25,38,,,,0,12,26,1693.5127,0.0,5333.333,,362,,,0,65536,,
https://s.tremorvideodsp.com/q/video1_small.mp4,COMPLETE,206,https,GET,video/mp4,/127.0.0.1,52058,s.tremorvideodsp.com/23.48.39.121,443,,03 Jun 2019 14:59:25,03 Jun 2019 14:59:25,03 Jun 2019 14:59:25,03 Jun 2019 14:59:25,33,,,,0,6,27,1950.2832,0.0,10666.666,,368,,,0,65536,,
https://s.tremorvideodsp.com/q/video1_small.mp4,COMPLETE,206,https,GET,video/mp4,/127.0.0.1,52060,s.tremorvideodsp.com/23.48.39.121,443,com.xk72.proxy.ProxyException: Client closed connection before receiving entire response,03 Jun 2019 14:59:25,03 Jun 2019 14:59:25,03 Jun 2019 14:59:25,03 Jun 2019 14:59:25,227,2,8,27,0,162,28,4885.075,0.0,6836.9736,986,368,,14959,0,1119213,,
https://s.tremorvideodsp.com/q/video1_small.mp4,COMPLETE,206,https,GET,video/mp4,/127.0.0.1,52058,s.tremorvideodsp.com/23.48.39.121,443,,03 Jun 2019 14:59:25,03 Jun 2019 14:59:25,03 Jun 2019 14:59:25,03 Jun 2019 14:59:25,69,,,,0,5,64,932.74414,0.0,12800.0,,368,,,0,65536,,
https://api-glb-nyc.smoot.apple.com,COMPLETE,200,https,CONNECT,,/127.0.0.1,52062,api-glb-nyc.smoot.apple.com/17.249.121.246,443,,03 Jun 2019 14:59:58,,,03 Jun 2019 15:00:00,1295,40,70,71,,,,2.5009766,,,2207,0,443,327,0,340,,
https://api-glb-nyc.smoot.apple.com,COMPLETE,200,https,CONNECT,,/127.0.0.1,52063,api-glb-nyc.smoot.apple.com/17.249.121.246,443,,03 Jun 2019 14:59:58,,,03 Jun 2019 15:00:01,2391,36,70,156,,,,8.850586,,,2892,0,445,17991,0,342,,
