URL,Status,Response Code,Protocol,Method,Content-Type,Client Address,Client Port,Remote Address,Remote Port,Exception,Request Start Time,Request End Time,Response Start Time,Response End Time,Duration (ms),DNS Duration (ms),Connect Duration (ms),SSL Duration (ms),Request Duration (ms),Response Duration (ms),Latency (ms),Speed (KB/s),Request Speed (KB/s),Response Speed (KB/s),Request Handshake Size (bytes),Request Header Size (bytes),Request Body Size (bytes),Response Handshake Size (bytes),Response Header Size (bytes),Response Body Size (bytes),Request Compression,Response Compression
https://14.client-channel.google.com,RECEIVING_RESPONSE_BODY,200,https,CONNECT,,/127.0.0.1,50798,14.client-channel.google.com/74.125.192.189,443,,03 Jun 2019 14:27:42,,,,2325097,38,33,34,,,,0.0107421875,,,1608,0,9294,372,0,14624,,
https://ts01-b.cloudsink.net,RECEIVING_REQUEST_BODY,200,https,CONNECT,,/127.0.0.1,51057,ts01-b.cloudsink.net/54.193.67.98,443,,03 Jun 2019 14:29:35,,,,2211773,36,72,174,,,,0.08203125,,,1246,0,140026,17474,0,28316,,
https://ssl.gstatic.com,RECEIVING_REQUEST_BODY,200,https,CONNECT,,/127.0.0.1,51061,ssl.gstatic.com/172.217.12.195,443,,03 Jun 2019 14:29:47,,,,2199558,36,5,3,,,,0.00390625,,,1608,0,2927,372,0,4671,,
https://www.google-analytics.com,COMPLETE,200,https,CONNECT,,/127.0.0.1,52041,www.google-analytics.com/172.217.6.206,443,,03 Jun 2019 14:58:54,,,03 Jun 2019 15:04:53,359028,2,6,113,,,,0.055664062,,,2892,0,1122,15900,0,,,
https://stats.g.doubleclick.net,COMPLETE,200,https,CONNECT,,/127.0.0.1,52043,stats.g.doubleclick.net/173.194.206.156,443,,03 Jun 2019 14:58:55,,,03 Jun 2019 15:04:53,358840,2,39,43,,,,0.0107421875,,,2207,0,848,372,0,,,
https://www.google.com,COMPLETE,200,https,CONNECT,,/127.0.0.1,52045,www.google.com/172.217.11.36,443,,03 Jun 2019 14:58:55,,,03 Jun 2019 15:04:53,358677,2,2,3,,,,0.01171875,,,2207,0,1027,372,0,,,
https://play.google.com,COMPLETE,200,https,CONNECT,,/127.0.0.1,52078,play.google.com/172.217.10.46,443,,03 Jun 2019 15:01:45,,,03 Jun 2019 15:03:46,120731,2,2,4,,,,0.038085938,,,2207,0,1047,372,0,,,
https://chat-pa.clients6.google.com,COMPLETE,200,https,CONNECT,,/127.0.0.1,52215,chat-pa.clients6.google.com/172.217.7.10,443,,03 Jun 2019 15:04:25,,,03 Jun 2019 15:06:26,121007,2,2,52,,,,0.1953125,,,2892,0,1203,19621,0,574,,
https://chat-pa.clients6.google.com,RECEIVING_REQUEST_BODY,200,https,CONNECT,,/127.0.0.1,52217,chat-pa.clients6.google.com/172.217.7.10,443,,03 Jun 2019 15:04:25,,,,121598,1,2,,,,,0.00390625,,,517,0,0,,0,0,,
https://entitlements.jwplayer.com,COMPLETE,200,https,CONNECT,,/127.0.0.1,52219,entitlements.jwplayer.com/72.21.81.189,443,,03 Jun 2019 15:04:40,,,03 Jun 2019 15:04:52,12428,50,1,38,,,,2.8291016,,,1684,0,317,33541,0,464,,
https://s.tremorvideodsp.com/q/video1_small.mp4,COMPLETE,206,https,GET,video/mp4,/127.0.0.1,52220,s.tremorvideodsp.com/23.48.39.121,443,,03 Jun 2019 15:04:40,03 Jun 2019 15:04:40,03 Jun 2019 15:04:40,03 Jun 2019 15:04:40,229,149,9,29,0,0,42,70.22266,0.0,0.0,1058,358,,15049,0,2,,
https://jwpltx.com,COMPLETE,200,https,CONNECT,,/127.0.0.1,52221,jwpltx.com/54.174.103.247,443,,03 Jun 2019 15:04:40,,,03 Jun 2019 15:04:52,12395,48,10,33,,,,2.6845703,,,1609,0,609,31731,0,132,,
https://s.tremorvideodsp.com/q/video1_small.mp4,COMPLETE,206,https,GET,video/mp4,/127.0.0.1,52220,s.tremorvideodsp.com/23.48.39.121,443,,03 Jun 2019 15:04:40,03 Jun 2019 15:04:40,03 Jun 2019 15:04:40,03 Jun 2019 15:04:40,46,,,,0,13,33,1398.9893,0.0,4923.076,,362,,,0,65536,,
https://s.tremorvideodsp.com/q/video1_small.mp4,COMPLETE,206,https,GET,video/mp4,/127.0.0.1,52220,s.tremorvideodsp.com/23.48.39.121,443,,03 Jun 2019 15:04:40,03 Jun 2019 15:04:40,03 Jun 2019 15:04:40,03 Jun 2019 15:04:40,33,,,,0,6,27,1950.2832,0.0,10666.666,,368,,,0,65536,,
https://s.tremorvideodsp.com/q/video1_small.mp4,COMPLETE,206,https,GET,video/mp4,/127.0.0.1,52225,s.tremorvideodsp.com/23.48.39.121,443,,03 Jun 2019 15:04:40,03 Jun 2019 15:04:40,03 Jun 2019 15:04:40,03 Jun 2019 15:04:41,539,2,10,37,0,469,21,17949.385,0.0,20625.578,986,368,,14959,0,9890599,,
https://s.tremorvideodsp.com/q/video1_small.mp4,COMPLETE,206,https,GET,video/mp4,/127.0.0.1,52220,s.tremorvideodsp.com/23.48.39.121,443,,03 Jun 2019 15:04:40,03 Jun 2019 15:04:40,03 Jun 2019 15:04:40,03 Jun 2019 15:04:40,23,,,,0,4,19,2798.2334,0.0,16000.0,,368,,,0,65536,,
https://adserver.videohub.tv/preview?RI=IkYgDLIOrjWTY3uLCOQXaw&screenType=mobiletablet&rml=true&Uctry=__country__&Ust=__state__&Udma=__dma__&Uzip=__postalCode__&Ucty=__city__&Uctnt=__continent__&Ulong=__longitude__&Ulat=__latitude__&Uacd=__areaCode__&position_ACP=__adChoicesPosition__&usedACP=__usedACP__&dspACP=__adChoicesProviders__&sig=A1EACCBDAC58AFA6141FDB4341608FB5&CI=tRLrZ3DRVg73eA19b3cA7A&dmps=y&ssRmlApp=1&isApp=y,COMPLETE,200,https,GET,application/xml; charset=utf-8,/127.0.0.1,52227,adserver.videohub.tv/67.226.210.8,443,,03 Jun 2019 15:04:49,03 Jun 2019 15:04:49,03 Jun 2019 15:04:49,03 Jun 2019 15:04:49,65,2,10,29,0,9,15,625.78125,0.0,4330.7285,1046,694,,25605,0,14307,,
https://objects-secure.videohub.tv/net/js/rml-app.min.js?adData=https%3A%2F%2Frtr.innovid.com%2Fr1.59ef24aa5a7819.16088327%3Bcb%3D1995142844,COMPLETE,200,https,GET,application/javascript,/127.0.0.1,52229,objects-secure.videohub.tv/104.110.215.249,443,,03 Jun 2019 15:04:49,03 Jun 2019 15:04:49,03 Jun 2019 15:04:49,03 Jun 2019 15:04:49,164,110,8,24,0,13,9,483.1836,0.0,5984.375,1070,410,,16754,0,62910,,72.6%
https://rtr.innovid.com,COMPLETE,200,https,CONNECT,,/127.0.0.1,52231,rtr.innovid.com/52.22.184.183,443,,03 Jun 2019 15:04:49,,,03 Jun 2019 15:04:52,3012,199,10,38,,,,7.3164062,,,1474,0,320,19365,0,1409,,
https://objects-secure.tremormedia.com/net/js/io-polyfill-0.5.1.js,COMPLETE,200,https,GET,application/javascript,/127.0.0.1,52233,objects-secure.tremormedia.com/104.110.194.47,443,,03 Jun 2019 15:04:49,03 Jun 2019 15:04:50,03 Jun 2019 15:04:50,03 Jun 2019 15:04:50,141,97,9,24,1,1,9,170.1709,1388.6719,22605.469,1086,336,,16789,0,6359,,71.5%
https://s-static.innovid.com,COMPLETE,200,https,CONNECT,,/127.0.0.1,52235,s-static.innovid.com/184.28.89.78,443,,03 Jun 2019 15:04:50,,,03 Jun 2019 15:04:52,2448,109,26,70,,,,41.26758,,,1499,0,1260,21421,0,79270,,
https://s.innovid.com,COMPLETE,200,https,CONNECT,,/127.0.0.1,52237,s.innovid.com/18.214.12.6,443,,03 Jun 2019 15:04:50,,,03 Jun 2019 15:05:21,30694,254,10,58,,,,0.89453125,,,1464,0,3800,19365,0,3495,,
https://l0-secure.videohub.tv/ssframework/log/log.png?EC=7&a=logitemaction&nolog=1&ssPD=tremorvideodsp.com&Uzip=__postalCode__&CI=3502476&ADI=7591056&PRI=1e25ba81-377d-4b7e-b8f4-66961302199a&Udma=__dma__&ssMLVer=rml_app_1.9.0&Uctry=__country__&AVI=425726&ssASVer=2.0&PBI=3500226&RI=1&Ust=__state__&NI=1344&admode=preroll&ssDsC=mobiletablet&ssRnd=2101439375&Eipct=0&EvaF=1&EiN=1,COMPLETE,200,https,GET,image/gif,/127.0.0.1,52238,l0-secure.videohub.tv/67.226.210.12,443,,03 Jun 2019 15:04:50,03 Jun 2019 15:04:50,03 Jun 2019 15:04:50,03 Jun 2019 15:04:50,65,3,9,38,0,1,14,415.66992,0.0,25304.688,1050,705,,25869,0,43,,
https://prd.jwpltx.com,COMPLETE,200,https,CONNECT,,/127.0.0.1,52240,prd.jwpltx.com/52.55.96.211,443,,03 Jun 2019 15:04:50,,,03 Jun 2019 15:05:21,30670,78,9,39,,,,1.1259766,,,1469,0,1926,31731,0,264,,
https://s-static.innovid.com,COMPLETE,200,https,CONNECT,,/127.0.0.1,52241,s-static.innovid.com/184.28.89.78,443,,03 Jun 2019 15:04:50,,,03 Jun 2019 15:05:52,61799,2,26,29,,,,11.370117,,,975,0,6315,515,0,711779,,
https://s-files.innovid.com,COMPLETE,200,https,CONNECT,,/127.0.0.1,52243,s-files.innovid.com/184.28.89.78,443,,03 Jun 2019 15:04:50,,,03 Jun 2019 15:05:21,30634,46,26,68,,,,265.18652,,,1494,0,1184,25242,0,8290779,,
https://s-cdn.innovid.com,COMPLETE,200,https,CONNECT,,/127.0.0.1,52247,s-cdn.innovid.com/184.28.89.78,443,,03 Jun 2019 15:04:50,,,03 Jun 2019 15:05:21,30420,47,25,69,,,,1.4482422,,,1484,0,760,25242,0,17644,,
https://ag.innovid.com,COMPLETE,200,https,CONNECT,,/127.0.0.1,52249,ag.innovid.com/34.198.141.147,443,,03 Jun 2019 15:04:50,,,03 Jun 2019 15:05:21,30350,178,9,39,,,,0.8330078,,,1469,0,3721,19365,0,1350,,
https://dt-secure.videohub.tv/v1/usync/ironsource?userId=,COMPLETE,303,https,GET,image/gif,/127.0.0.1,52251,dt-secure.videohub.tv/67.226.210.13,443,,03 Jun 2019 15:04:51,03 Jun 2019 15:04:51,03 Jun 2019 15:04:51,03 Jun 2019 15:04:51,60,6,9,34,0,0,11,445.1006,0.0,0.0,1050,385,,25869,0,43,,
https://sync.doubleverify.com/query.gif?ctx=42674&cmp=2311460&DVP_CMPID=3502476&DVP_PUBID=&dvp_red=http%3A%2F%2Fads.videohub.tv%2Fssframework%2Fdt%2Fbotid%3Fa%3Dset%26DUID%3D1,COMPLETE,200,https,GET,image/gif,/127.0.0.1,52252,sync.doubleverify.com/204.154.111.224,443,,03 Jun 2019 15:04:51,03 Jun 2019 15:04:51,03 Jun 2019 15:04:51,03 Jun 2019 15:04:51,60,42,5,3,0,5,5,39.664062,0.0,235.35156,729,503,,345,0,860,,-6.6%
https://tags.bluekai.com/site/2954,COMPLETE,200,https,GET,,/127.0.0.1,52255,tags.bluekai.com/96.7.23.53,443,,03 Jun 2019 15:04:51,03 Jun 2019 15:04:51,03 Jun 2019 15:04:51,03 Jun 2019 15:04:51,147,6,11,31,0,0,99,101.01758,0.0,0.0,1030,362,,13814,0,0,,
https://tps30.doubleverify.com/visit.jpg?ctx=42674&cmp=2256325&sid=1111&plc=22563261&num=&adid=&advid=498259&adsrv=41&region=30&btreg=&btadsrv=&crt=&crtname=&chnl=&unit=&pid=&uid=&dvtagver=6.1.img&DVP_CMPID=3502476&DVP_PUBID=&turl=tremorvideodsp.com,COMPLETE,200,https,GET,image/jpeg,/127.0.0.1,52254,tps30.doubleverify.com/204.154.111.113,443,,03 Jun 2019 15:04:51,03 Jun 2019 15:04:52,03 Jun 2019 15:04:52,03 Jun 2019 15:04:52,348,328,2,13,0,0,5,73.23926,0.0,0.0,1182,577,,24198,0,142,,53.4%
https://l0-secure.videohub.tv/ssframework/log/log.png?EC=3&a=logitemaction&nolog=1&ssPD=tremorvideodsp.com&Uzip=__postalCode__&CI=3502476&ADI=7591056&PRI=1e25ba81-377d-4b7e-b8f4-66961302199a&Udma=__dma__&ssMLVer=rml_app_1.9.0&Uctry=__country__&AVI=425726&ssASVer=2.0&PBI=3500226&RI=1&Ust=__state__&NI=1344&admode=preroll&ssDsC=mobiletablet&ssRnd=744027767&SfF=true&dspPartnerFee=rp-nielsen:0.0099800000&AmN=1&ssBe=1&adFocus=true&RvN=1,COMPLETE,200,https,GET,image/gif,/127.0.0.1,52238,l0-secure.videohub.tv/67.226.210.12,443,,03 Jun 2019 15:04:51,03 Jun 2019 15:04:51,03 Jun 2019 15:04:51,03 Jun 2019 15:04:51,12,,,,0,0,12,65.51074,0.0,0.0,,762,,,0,43,,
https://s.tremorvideodsp.com/q/qa.gif?param1=screen_impression,COMPLETE,200,https,GET,image/gif,/127.0.0.1,52259,s.tremorvideodsp.com/23.48.39.121,443,,03 Jun 2019 15:04:51,03 Jun 2019 15:04:51,03 Jun 2019 15:04:51,03 Jun 2019 15:04:51,58,4,8,22,0,0,24,278.28613,0.0,0.0,1046,390,,15049,0,43,,
"https://secure-gl.imrworldwide.com/cgi-bin/m?ci=nlsnapi12535&am=4&ep=1&at=view&rt=banner&st=image&ca=3500226_000&cr=&pc=3502476&r=1995142844&c7=osgrp,iOS&c8=devgrp,TAB&c9=devid,unknown&c10=plt,MBL&c12=apv,12.1&c13=asid,PF85C1805-9397-D9CB-E040-070AAD31777E&c14=osver,12.1",COMPLETE,200,https,GET,image/gif,/127.0.0.1,52257,secure-gl.imrworldwide.com/99.84.127.17,443,,03 Jun 2019 15:04:51,03 Jun 2019 15:04:52,03 Jun 2019 15:04:52,03 Jun 2019 15:04:52,145,105,1,17,0,0,22,121.868164,0.0,0.0,1070,599,,16382,0,44,,
https://tp.videohub.tv/v1/topprop.png?domain=&ui=&pri=1e25ba81-377d-4b7e-b8f4-66961302199a&ssRnd=1637971071,COMPLETE,200,https,GET,image/png,/127.0.0.1,52256,tp.videohub.tv/67.226.210.12,443,,03 Jun 2019 15:04:51,03 Jun 2019 15:04:51,03 Jun 2019 15:04:52,03 Jun 2019 15:04:52,109,57,9,28,0,0,15,245.20605,0.0,0.0,1022,435,,25869,0,43,,
https://dts.innovid.com,COMPLETE,200,https,CONNECT,,/127.0.0.1,52260,dts.innovid.com/18.188.202.141,443,,03 Jun 2019 15:04:51,,,03 Jun 2019 15:05:21,29604,179,27,157,,,,0.7109375,,,1474,0,376,19365,0,360,,
https://sync.doubleverify.com/query.gif?ctx=42674&cmp=2256325&DVP_CMPID=3502476&DVP_PUBID=&dvp_red=http%3A%2F%2Fapp.scanscout.com%2Fssframework%2Fdt%2Fbotid%3Fa%3Dset%26DUID%3D1,COMPLETE,200,https,GET,image/gif,/127.0.0.1,52264,sync.doubleverify.com/204.154.111.224,443,,03 Jun 2019 15:04:51,03 Jun 2019 15:04:51,03 Jun 2019 15:04:51,03 Jun 2019 15:04:51,35,1,3,3,0,0,28,66.796875,0.0,0.0,684,505,,345,0,860,,-6.6%
https://dt-secure.videohub.tv/v1/usync/rubicon?userId=,COMPLETE,303,https,GET,image/gif,/127.0.0.1,52269,dt-secure.videohub.tv/67.226.210.13,443,,03 Jun 2019 15:04:51,03 Jun 2019 15:04:51,03 Jun 2019 15:04:51,03 Jun 2019 15:04:51,49,2,9,28,0,0,10,543.7656,0.0,0.0,990,382,,25869,0,43,,
https://dt-secure.videohub.tv/v1/usync/lkqd_direct?userId=,COMPLETE,303,https,GET,image/gif,/127.0.0.1,52267,dt-secure.videohub.tv/67.226.210.13,443,,03 Jun 2019 15:04:51,03 Jun 2019 15:04:51,03 Jun 2019 15:04:51,03 Jun 2019 15:04:51,55,3,8,34,1,0,9,484.5166,1343.75,0.0,990,386,,25869,0,43,,
https://dt-secure.videohub.tv/v1/usync/bs?userId=,COMPLETE,303,https,GET,image/gif,/127.0.0.1,52266,dt-secure.videohub.tv/67.226.210.13,443,,03 Jun 2019 15:04:51,03 Jun 2019 15:04:51,03 Jun 2019 15:04:51,03 Jun 2019 15:04:51,64,1,10,41,0,0,12,416.24414,0.0,0.0,990,377,,25869,0,43,,
https://dt-secure.videohub.tv/v1/usync/pubmatic?userId=,COMPLETE,303,https,GET,image/gif,/127.0.0.1,52268,dt-secure.videohub.tv/67.226.210.13,443,,03 Jun 2019 15:04:51,03 Jun 2019 15:04:51,03 Jun 2019 15:04:51,03 Jun 2019 15:04:51,78,2,19,39,1,0,17,341.6084,1340.8203,0.0,990,383,,25869,0,43,,
https://dt-secure.videohub.tv/v1/usync/springserve?userId=,COMPLETE,303,https,GET,image/gif,/127.0.0.1,52270,dt-secure.videohub.tv/67.226.210.13,443,,03 Jun 2019 15:04:51,03 Jun 2019 15:04:51,03 Jun 2019 15:04:51,03 Jun 2019 15:04:51,81,1,18,50,0,0,12,328.9922,0.0,0.0,990,386,,25869,0,43,,
https://dt-secure.videohub.tv/v1/usync/spx?userId=,COMPLETE,303,https,GET,image/gif,/127.0.0.1,52251,dt-secure.videohub.tv/67.226.210.13,443,,03 Jun 2019 15:04:51,03 Jun 2019 15:04:51,03 Jun 2019 15:04:51,03 Jun 2019 15:04:51,18,,,,0,0,18,22.839844,0.0,0.0,,378,,,0,43,,
https://cs.rtb-seller.com,COMPLETE,200,https,CONNECT,,/127.0.0.1,52277,cs.rtb-seller.com/34.235.49.76,443,,03 Jun 2019 15:04:51,,,03 Jun 2019 15:05:21,29445,5,13,162,,,,1.1132812,,,1484,0,388,31539,0,170,,
https://s.tremorvideodsp.com/q/qa.gif?param1=impression,COMPLETE,200,https,GET,image/gif,/127.0.0.1,52279,s.tremorvideodsp.com/23.48.39.121,443,,03 Jun 2019 15:04:51,03 Jun 2019 15:04:51,03 Jun 2019 15:04:52,03 Jun 2019 15:04:52,57,7,8,26,0,0,16,280.47852,0.0,0.0,986,383,,14959,0,43,,
https://s.tremorvideodsp.com/q/qa.gif?param1=creative_impression,COMPLETE,200,https,GET,image/gif,/127.0.0.1,52278,s.tremorvideodsp.com/23.48.39.121,443,,03 Jun 2019 15:04:51,03 Jun 2019 15:04:51,03 Jun 2019 15:04:52,03 Jun 2019 15:04:52,115,9,9,31,0,1,65,139.0957,0.0,14650.391,986,392,,14959,0,43,,
https://dt-secure.videohub.tv/v1/usync/rhythmone?userId=,COMPLETE,303,https,GET,image/gif,/127.0.0.1,52251,dt-secure.videohub.tv/67.226.210.13,443,,03 Jun 2019 15:04:51,03 Jun 2019 15:04:51,03 Jun 2019 15:04:51,03 Jun 2019 15:04:51,16,,,,0,0,16,26.061523,0.0,0.0,,384,,,0,43,,
https://sync.search.spotxchange.com,COMPLETE,200,https,CONNECT,,/127.0.0.1,52284,sync.search.spotxchange.com/192.35.249.120,443,,03 Jun 2019 15:04:51,,,03 Jun 2019 15:05:21,29385,94,10,176,,,,0.6660156,,,1534,0,886,16383,0,1260,,
https://dt-secure.videohub.tv/v1/usync/tr?userId=,COMPLETE,303,https,GET,image/gif,/127.0.0.1,52251,dt-secure.videohub.tv/67.226.210.13,443,,03 Jun 2019 15:04:51,03 Jun 2019 15:04:51,03 Jun 2019 15:04:51,03 Jun 2019 15:04:51,17,,,,0,0,17,24.125977,0.0,0.0,,377,,,0,43,,
https://dt-secure.videohub.tv/ssframework/tvuid?a=set&UI=,COMPLETE,400,https,GET,image/gif,/127.0.0.1,52269,dt-secure.videohub.tv/67.226.210.13,443,,03 Jun 2019 15:04:51,03 Jun 2019 15:04:51,03 Jun 2019 15:04:51,03 Jun 2019 15:04:51,10,,,,0,1,9,41.796875,0.0,41.992188,,385,,,0,43,,
https://dt-secure.videohub.tv/v1/usync/ex?userId=,COMPLETE,303,https,GET,image/gif,/127.0.0.1,52267,dt-secure.videohub.tv/67.226.210.13,443,,03 Jun 2019 15:04:51,03 Jun 2019 15:04:51,03 Jun 2019 15:04:51,03 Jun 2019 15:04:51,12,,,,0,0,12,34.179688,0.0,0.0,,377,,,0,43,,
https://dt-secure.videohub.tv/v1/usync/lo?userId=,COMPLETE,303,https,GET,image/gif,/127.0.0.1,52266,dt-secure.videohub.tv/67.226.210.13,443,,03 Jun 2019 15:04:51,03 Jun 2019 15:04:51,03 Jun 2019 15:04:51,03 Jun 2019 15:04:51,16,,,,0,0,16,25.634766,0.0,0.0,,377,,,0,43,,
https://sync.1rx.io,COMPLETE,200,https,CONNECT,,/127.0.0.1,52285,sync.1rx.io/8.41.222.152,443,,03 Jun 2019 15:04:51,,,03 Jun 2019 15:05:21,29283,45,3,134,,,,0.9248047,,,1094,0,796,24907,0,936,,
https://pixel.rubiconproject.com,COMPLETE,200,https,CONNECT,,/127.0.0.1,52286,pixel.rubiconproject.com/208.185.50.90,443,,03 Jun 2019 15:04:51,,,03 Jun 2019 15:05:21,29321,195,10,195,,,,0.67578125,,,1589,0,890,16516,0,1322,,
https://cs.lkqd.net,COMPLETE,200,https,CONNECT,,/127.0.0.1,52287,cs.lkqd.net/146.20.132.117,443,,03 Jun 2019 15:04:51,,,03 Jun 2019 15:05:21,29320,8,9,143,,,,1.4716797,,,1322,0,396,42000,0,482,,
https://dt-secure.videohub.tv/v1/usync/lrjs?userId=,COMPLETE,303,https,GET,image/gif,/127.0.0.1,52267,dt-secure.videohub.tv/67.226.210.13,443,,03 Jun 2019 15:04:51,03 Jun 2019 15:04:51,03 Jun 2019 15:04:52,03 Jun 2019 15:04:52,24,,,,0,1,23,17.170898,0.0,41.992188,,379,,,0,43,,
https://dt-secure.videohub.tv/v1/usync/dd?userId=,COMPLETE,303,https,GET,image/gif,/127.0.0.1,52270,dt-secure.videohub.tv/67.226.210.13,443,,03 Jun 2019 15:04:51,03 Jun 2019 15:04:51,03 Jun 2019 15:04:52,03 Jun 2019 15:04:52,11,,,,0,0,11,37.286133,0.0,0.0,,377,,,0,43,,
https://dt-secure.videohub.tv/v1/usync/ds?userId=,COMPLETE,303,https,GET,image/gif,/127.0.0.1,52269,dt-secure.videohub.tv/67.226.210.13,443,,03 Jun 2019 15:04:51,03 Jun 2019 15:04:51,03 Jun 2019 15:04:52,03 Jun 2019 15:04:52,12,,,,0,0,12,34.179688,0.0,0.0,,377,,,0,43,,
https://x.bidswitch.net,COMPLETE,200,https,CONNECT,,/127.0.0.1,52288,x.bidswitch.net/35.185.110.45,443,,03 Jun 2019 15:04:51,,,03 Jun 2019 15:05:02,10557,113,22,193,,,,3.5683594,,,1146,0,405,36284,0,743,,
https://dt-secure.videohub.tv/v1/usync/db?userId=&deviceId=unknown&screenType=mobiletablet&osType=iOS&rand=1995142844,COMPLETE,303,https,GET,image/gif,/127.0.0.1,52251,dt-secure.videohub.tv/67.226.210.13,443,,03 Jun 2019 15:04:52,03 Jun 2019 15:04:52,03 Jun 2019 15:04:52,03 Jun 2019 15:04:52,11,,,,0,1,10,43.323242,0.0,41.992188,,445,,,0,43,,
https://dt-secure.videohub.tv/v1/usync/kx?userId=,COMPLETE,303,https,GET,image/gif,/127.0.0.1,52268,dt-secure.videohub.tv/67.226.210.13,443,,03 Jun 2019 15:04:52,03 Jun 2019 15:04:52,03 Jun 2019 15:04:52,03 Jun 2019 15:04:52,12,,,,0,1,11,34.179688,0.0,41.992188,,377,,,0,43,,
https://dt-secure.videohub.tv/v1/usync/al?userId=,COMPLETE,303,https,GET,image/gif,/127.0.0.1,52266,dt-secure.videohub.tv/67.226.210.13,443,,03 Jun 2019 15:04:52,03 Jun 2019 15:04:52,03 Jun 2019 15:04:52,03 Jun 2019 15:04:52,28,,,,1,0,27,14.6484375,368.16406,0.0,,377,,,0,43,,
https://sync.springserve.com,COMPLETE,200,https,CONNECT,,/127.0.0.1,52290,sync.springserve.com/52.200.250.68,443,,03 Jun 2019 15:04:52,,,03 Jun 2019 15:05:21,29277,139,9,173,,,,1.1259766,,,1499,0,397,31653,0,212,,
https://loadm.exelator.com,COMPLETE,200,https,CONNECT,,/127.0.0.1,52291,loadm.exelator.com/147.75.39.192,443,,03 Jun 2019 15:04:52,,,03 Jun 2019 15:05:02,10457,86,2,176,,,,3.2451172,,,1122,0,816,31294,0,1525,,
https://partners.tremorhub.com,COMPLETE,200,https,CONNECT,,/127.0.0.1,52292,partners.tremorhub.com/52.3.167.150,443,,03 Jun 2019 15:04:52,,,03 Jun 2019 15:05:21,29288,51,9,175,,,,1.1494141,,,1509,0,387,32079,0,516,,
https://simage2.pubmatic.com,COMPLETE,200,https,CONNECT,,/127.0.0.1,52293,simage2.pubmatic.com/162.248.19.147,443,,03 Jun 2019 15:04:52,,,03 Jun 2019 15:05:21,29285,53,2,185,,,,0.734375,,,1499,0,455,19257,0,827,,
https://dt-secure.videohub.tv/v1/usync/bk?userId=,COMPLETE,303,https,GET,image/gif,/127.0.0.1,52270,dt-secure.videohub.tv/67.226.210.13,443,,03 Jun 2019 15:04:52,03 Jun 2019 15:04:52,03 Jun 2019 15:04:52,03 Jun 2019 15:04:52,10,,,,0,0,10,41.015625,0.0,0.0,,377,,,0,43,,
https://dt-secure.videohub.tv/v1/usync/lr?userId=,COMPLETE,303,https,GET,image/gif,/127.0.0.1,52269,dt-secure.videohub.tv/67.226.210.13,443,,03 Jun 2019 15:04:52,03 Jun 2019 15:04:52,03 Jun 2019 15:04:52,03 Jun 2019 15:04:52,18,,,,0,0,18,22.786133,0.0,0.0,,377,,,0,43,,
https://bcp.crwdcntrl.net,COMPLETE,200,https,CONNECT,,/127.0.0.1,52297,bcp.crwdcntrl.net/34.206.75.224,443,,03 Jun 2019 15:04:52,,,03 Jun 2019 15:05:21,29269,64,9,185,,,,1.1425781,,,1484,0,797,31179,0,791,,
https://dt-secure.videohub.tv/v1/usync/ns?userId=,COMPLETE,303,https,GET,image/gif,/127.0.0.1,52251,dt-secure.videohub.tv/67.226.210.13,443,,03 Jun 2019 15:04:52,03 Jun 2019 15:04:52,03 Jun 2019 15:04:52,03 Jun 2019 15:04:52,12,,,,1,1,10,34.179688,368.16406,41.992188,,377,,,0,43,,
https://objects-secure.tremormedia.com/net/js/lr.js?partner_id=fab13f89e9e0cf19bc4edc90b9482a25,COMPLETE,200,https,GET,application/javascript,/127.0.0.1,52233,objects-secure.tremormedia.com/104.110.194.47,443,,03 Jun 2019 15:04:52,03 Jun 2019 15:04:52,03 Jun 2019 15:04:52,03 Jun 2019 15:04:52,9,,,,0,0,9,130.3164,0.0,0.0,,423,,,0,778,,57.1%
https://idpix.media6degrees.com,COMPLETE,200,https,CONNECT,,/127.0.0.1,52299,idpix.media6degrees.com/204.2.197.201,443,,03 Jun 2019 15:04:52,,,03 Jun 2019 15:04:52,342,114,2,146,,,,76.49707,,,1514,0,431,24075,0,770,,
https://dpm.demdex.net,COMPLETE,200,https,CONNECT,,/127.0.0.1,52298,dpm.demdex.net/52.72.198.167,443,,03 Jun 2019 15:04:52,,,03 Jun 2019 15:05:21,29237,44,8,179,,,,0.72558594,,,1469,0,804,18303,0,1155,,
https://p.adsymptotic.com,COMPLETE,200,https,CONNECT,,/127.0.0.1,52300,p.adsymptotic.com/34.198.44.143,443,,03 Jun 2019 15:04:52,,,03 Jun 2019 15:05:21,29227,57,11,171,,,,0.7558594,,,1484,0,944,19281,0,921,,
https://beacon.krxd.net,COMPLETE,200,https,CONNECT,,/127.0.0.1,52301,beacon.krxd.net/54.243.110.121,443,,03 Jun 2019 15:04:52,,,03 Jun 2019 15:05:21,29224,64,9,164,,,,1.1181641,,,1474,0,414,31113,0,482,,
https://idsync.rlcdn.com,COMPLETE,200,https,CONNECT,,/127.0.0.1,52306,idsync.rlcdn.com/34.95.92.78,443,,03 Jun 2019 15:04:52,,,03 Jun 2019 15:05:21,29093,3,3,176,,,,0.9326172,,,1347,0,838,24510,0,1107,,
https://sync.alphonso.tv,COMPLETE,200,https,CONNECT,,/127.0.0.1,52305,sync.alphonso.tv/104.129.168.238,443,,03 Jun 2019 15:04:52,,,03 Jun 2019 15:05:21,29192,74,5,162,,,,1.0097656,,,1479,0,391,27865,0,471,,
https://stags.bluekai.com,COMPLETE,200,https,CONNECT,,/127.0.0.1,52304,stags.bluekai.com/96.7.23.53,443,,03 Jun 2019 15:04:52,,,03 Jun 2019 15:05:21,29195,75,11,191,,,,0.8017578,,,1484,0,459,21254,0,786,,
https://aa.agkn.com,COMPLETE,200,https,CONNECT,,/127.0.0.1,52310,aa.agkn.com/63.251.88.56,443,,03 Jun 2019 15:04:52,,,03 Jun 2019 15:04:52,304,61,9,167,,,,74.29883,,,1454,0,402,20762,0,511,,
https://tps30.doubleverify.com/visit.jpg?ctx=42674&cmp=DV069178&sid=1111&plc=2018011501&advid=3819603&adsrv=0&tagtype=&dvtagver=6.1.img&DVP_PP_REP=1&DVP_IQM_ID=16&DVP_DV_TT=2&DVP_DV_CT=2&DVP_TR_SSP=&DVP_TR_PUB=[PUBLISHER_ID]&DVP_TR_SITE=[SUPPLY_ID]&DVP_TR_ADV=425726&DVP_TR_CMP=3502476&DVP_TR_PLC=3502476&turl=tremorvideodsp.com&DVP_PP_BUNDLE_ID=&DVP_TR_COST=,COMPLETE,200,https,GET,image/jpeg,/127.0.0.1,52321,tps30.doubleverify.com/204.154.111.113,443,,03 Jun 2019 15:04:52,03 Jun 2019 15:04:52,03 Jun 2019 15:04:52,03 Jun 2019 15:04:52,17,2,4,3,0,0,8,105.87012,0.0,0.0,687,687,,327,0,142,,53.4%
https://pippio.com,COMPLETE,200,https,CONNECT,,/127.0.0.1,52323,pippio.com/107.178.254.65,443,,03 Jun 2019 15:04:52,,,03 Jun 2019 15:05:21,28883,1,2,33,,,,0.91796875,,,1317,0,751,23570,0,1536,,
https://d.agkn.com,COMPLETE,200,https,CONNECT,,/127.0.0.1,52325,d.agkn.com/34.204.129.15,443,,03 Jun 2019 15:04:52,,,03 Jun 2019 15:05:21,28785,7,8,38,,,,0.93066406,,,1449,0,384,25023,0,580,,
https://bsw.digitru.st,COMPLETE,200,https,CONNECT,,/127.0.0.1,52326,bsw.digitru.st/35.185.110.45,443,,03 Jun 2019 15:04:52,,,03 Jun 2019 15:05:02,10221,3,20,56,,,,3.5683594,,,1142,0,405,35144,0,658,,
https://cm.g.doubleclick.net,COMPLETE,200,https,CONNECT,,/127.0.0.1,52329,cm.g.doubleclick.net/172.217.9.226,443,,03 Jun 2019 15:04:52,,,03 Jun 2019 15:05:21,28805,48,2,62,,,,0.57910156,,,1367,0,424,14345,0,969,,
https://us-east-sync.bidswitch.net,COMPLETE,200,https,CONNECT,,/127.0.0.1,52331,us-east-sync.bidswitch.net/35.185.57.166,443,,03 Jun 2019 15:04:52,,,03 Jun 2019 15:05:02,10237,6,21,67,,,,3.6826172,,,1190,0,430,36284,0,700,,
https://l0-secure.videohub.tv/ssframework/log/log.png?EC=40&a=logitemaction&nolog=1&ssPD=tremorvideodsp.com&Uzip=__postalCode__&CI=3502476&ADI=7591056&PRI=1e25ba81-377d-4b7e-b8f4-66961302199a&Udma=__dma__&ssMLVer=rml_app_1.9.0&Uctry=__country__&AVI=425726&ssASVer=2.0&PBI=3500226&RI=1&Ust=__state__&NI=1344&admode=preroll&ssDsC=mobiletablet&ssRnd=673121357&EvaF=1&pctVw=0,COMPLETE,200,https,GET,image/gif,/127.0.0.1,52238,l0-secure.videohub.tv/67.226.210.12,443,,03 Jun 2019 15:04:52,03 Jun 2019 15:04:52,03 Jun 2019 15:04:52,03 Jun 2019 15:04:52,11,,,,0,0,11,65.87305,0.0,0.0,,699,,,0,43,,
https://dt-secure.videohub.tv/v1/uid?UIBK=ptbh1BJv99OaVdPz,COMPLETE,200,https,GET,image/gif,/127.0.0.1,52251,dt-secure.videohub.tv/67.226.210.13,443,,03 Jun 2019 15:04:52,03 Jun 2019 15:04:52,03 Jun 2019 15:04:52,03 Jun 2019 15:04:52,15,,,,0,1,14,27.929688,0.0,41.992188,,386,,,0,43,,
https://objects-secure.tremormedia.com/net/js/adchoicesappicon.min.js?iconPosition=top-left&optOut=&iconClick=&playerWidth=770&playerHeight=1026&sources=&country=us,COMPLETE,200,https,GET,application/javascript,/127.0.0.1,52233,objects-secure.tremormedia.com/104.110.194.47,443,,03 Jun 2019 15:04:52,03 Jun 2019 15:04:52,03 Jun 2019 15:04:52,03 Jun 2019 15:04:52,11,,,,0,1,10,1549.627,0.0,16622.07,,434,,,0,17021,,45.7%
https://tag.apxlv.com,COMPLETE,200,https,CONNECT,,/127.0.0.1,52333,tag.apxlv.com/162.223.54.6,443,,03 Jun 2019 15:04:52,,,03 Jun 2019 15:05:21,28476,48,8,45,,,,0.9609375,,,1464,0,368,25553,0,647,,
https://tag.cogocast.net,COMPLETE,200,https,CONNECT,,/127.0.0.1,52335,tag.cogocast.net/52.7.156.74,443,,03 Jun 2019 15:04:52,,,03 Jun 2019 15:05:21,28430,5,8,32,,,,1.1835938,,,1479,0,502,31563,0,923,,
https://gpush.cogocast.net,COMPLETE,200,https,CONNECT,,/127.0.0.1,52337,gpush.cogocast.net/162.223.54.16,443,,03 Jun 2019 15:04:52,,,03 Jun 2019 15:04:53,84,58,9,,,,,2.522461,,,210,0,0,7,0,0,,
https://s.tremorvideodsp.com/q/qa.gif?param1=screen_click,COMPLETE,200,https,GET,image/gif,/127.0.0.1,52259,s.tremorvideodsp.com/23.48.39.121,443,,03 Jun 2019 15:04:54,03 Jun 2019 15:04:54,03 Jun 2019 15:04:54,03 Jun 2019 15:04:54,21,,,,0,1,20,19.902344,0.0,41.992188,,385,,,0,43,,
https://s.tremorvideodsp.com/q/qa.gif?param1=creative_click,COMPLETE,200,https,GET,image/gif,/127.0.0.1,52279,s.tremorvideodsp.com/23.48.39.121,443,,03 Jun 2019 15:04:54,03 Jun 2019 15:04:54,03 Jun 2019 15:04:54,03 Jun 2019 15:04:54,17,,,,0,0,17,24.701172,0.0,0.0,,387,,,0,43,,
https://l0-secure.videohub.tv/ssframework/log/log.png?EC=2&a=logitemaction&nolog=1&ssPD=tremorvideodsp.com&Uzip=__postalCode__&CI=3502476&ADI=7591056&PRI=1e25ba81-377d-4b7e-b8f4-66961302199a&Udma=__dma__&ssMLVer=rml_app_1.9.0&Uctry=__country__&AVI=425726&ssASVer=2.0&PBI=3500226&RI=1&Ust=__state__&NI=1344&admode=preroll&ssDsC=mobiletablet&ssRnd=1133795095,COMPLETE,200,https,GET,image/gif,/127.0.0.1,52238,l0-secure.videohub.tv/67.226.210.12,443,,03 Jun 2019 15:04:54,03 Jun 2019 15:04:54,03 Jun 2019 15:04:54,03 Jun 2019 15:04:54,14,,,,0,3,11,50.710938,0.0,13.99707,,684,,,0,43,,
https://l0-secure.videohub.tv/ssframework/log/log.png?EC=4&a=logitemaction&nolog=1&ssPD=tremorvideodsp.com&Uzip=__postalCode__&CI=3502476&ADI=7591056&PRI=1e25ba81-377d-4b7e-b8f4-66961302199a&Udma=__dma__&ssMLVer=rml_app_1.9.0&Uctry=__country__&AVI=425726&ssASVer=2.0&PBI=3500226&RI=1&Ust=__state__&NI=1344&admode=preroll&ssDsC=mobiletablet&ssRnd=12394538&EiN=1,COMPLETE,200,https,GET,image/gif,/127.0.0.1,52339,l0-secure.videohub.tv/67.226.210.12,443,,03 Jun 2019 15:04:54,03 Jun 2019 15:04:54,03 Jun 2019 15:04:54,03 Jun 2019 15:04:54,129,2,10,105,1,1,10,208.8623,1638.6719,25304.688,990,688,,25869,0,43,,
https://www.audi.com,EXCEPTION,200,https,CONNECT,,/127.0.0.1,52340,www.audi.com/184.25.198.95,443,java.net.SocketException: Broken pipe (Write failed),03 Jun 2019 15:04:54,,,03 Jun 2019 15:04:54,613,167,9,70,,,,466.0,,,1374,0,528,28498,0,262114,,
http://www.audi.com/en.html,COMPLETE,301,http,GET,,/127.0.0.1,52342,www.audi.com/184.25.198.95,80,,03 Jun 2019 15:04:54,03 Jun 2019 15:04:54,03 Jun 2019 15:04:54,03 Jun 2019 15:04:54,60,40,8,,0,0,12,20.214844,0.0,0.0,,900,,,342,0,,
https://tms.audi.com,COMPLETE,200,https,CONNECT,,/127.0.0.1,52343,tms.audi.com/23.67.111.142,443,,03 Jun 2019 15:04:54,,,03 Jun 2019 15:05:37,43223,277,8,25,,,,0.86621094,,,3024,0,2229,31865,0,1224,,
https://s.innovid.com,COMPLETE,200,https,CONNECT,,/127.0.0.1,52346,s.innovid.com/18.214.12.6,443,,03 Jun 2019 15:04:54,,,03 Jun 2019 15:05:21,26748,3,9,87,,,,0.8046875,,,1289,0,735,19365,0,674,,
https://ag.innovid.com,COMPLETE,200,https,CONNECT,,/127.0.0.1,52348,ag.innovid.com/34.198.141.147,443,,03 Jun 2019 15:04:54,,,03 Jun 2019 15:05:21,26735,3,9,90,,,,0.7939453,,,1294,0,820,19365,0,270,,
https://www.audi.com,COMPLETE,200,https,CONNECT,,/127.0.0.1,52350,www.audi.com/184.25.198.95,443,,03 Jun 2019 15:04:54,,,03 Jun 2019 15:05:25,31150,1,9,49,,,,2.1347656,,,3024,0,903,28603,0,35564,,
https://www.audi.com,COMPLETE,200,https,CONNECT,,/127.0.0.1,52353,www.audi.com/184.25.198.95,443,,03 Jun 2019 15:04:54,,,03 Jun 2019 15:04:55,327,2,9,12,,,,606.4863,,,1015,0,516,339,0,201211,,
https://c.go-mpulse.net,COMPLETE,200,https,CONNECT,,/127.0.0.1,52355,c.go-mpulse.net/23.0.248.229,443,,03 Jun 2019 15:04:55,,,03 Jun 2019 15:05:26,30721,119,14,86,,,,0.953125,,,3024,0,735,25347,0,897,,
https://w.usabilla.com,COMPLETE,200,https,CONNECT,,/127.0.0.1,52356,w.usabilla.com/3.215.37.162,443,,03 Jun 2019 15:04:55,,,03 Jun 2019 15:05:55,60221,101,10,34,,,,0.5761719,,,3024,0,410,31836,0,301,,
https://s.tremorvideodsp.com/q/qa.gif?param1=screen_first_quartile,COMPLETE,200,https,GET,image/gif,/127.0.0.1,52259,s.tremorvideodsp.com/23.48.39.121,443,,03 Jun 2019 15:05:13,03 Jun 2019 15:05:13,03 Jun 2019 15:05:13,03 Jun 2019 15:05:13,46,,,,0,0,46,9.277344,0.0,0.0,,394,,,0,43,,
https://l0-secure.videohub.tv/ssframework/log/log.png?EC=7&a=logitemaction&nolog=1&ssPD=tremorvideodsp.com&Uzip=__postalCode__&CI=3502476&ADI=7591056&PRI=1e25ba81-377d-4b7e-b8f4-66961302199a&Udma=__dma__&ssMLVer=rml_app_1.9.0&Uctry=__country__&AVI=425726&ssASVer=2.0&PBI=3500226&RI=1&Ust=__state__&NI=1344&admode=preroll&ssDsC=mobiletablet&ssRnd=410531764&Eipct=25&EiN=1,COMPLETE,200,https,GET,image/gif,/127.0.0.1,52238,l0-secure.videohub.tv/67.226.210.12,443,,03 Jun 2019 15:05:13,03 Jun 2019 15:05:13,03 Jun 2019 15:05:13,03 Jun 2019 15:05:13,82,,9,27,36,0,10,329.41113,47.416992,0.0,1050,698,,25869,0,43,,
https://s.tremorvideodsp.com/q/qa.gif?param1=creative_first_quartile,COMPLETE,200,https,GET,image/gif,/127.0.0.1,52279,s.tremorvideodsp.com/23.48.39.121,443,,03 Jun 2019 15:05:13,03 Jun 2019 15:05:13,03 Jun 2019 15:05:13,03 Jun 2019 15:05:13,38,,,,0,0,38,11.28125,0.0,0.0,,396,,,0,43,,
https://s-static.innovid.com,COMPLETE,200,https,CONNECT,,/127.0.0.1,52360,s-static.innovid.com/184.28.89.78,443,,03 Jun 2019 15:05:21,,,03 Jun 2019 15:05:52,31135,72,27,94,,,,20.768555,,,1324,0,3797,25122,0,631934,,
https://s-static.innovid.com,COMPLETE,200,https,CONNECT,,/127.0.0.1,52362,s-static.innovid.com/184.28.89.78,443,,03 Jun 2019 15:05:21,,,03 Jun 2019 15:05:52,31131,79,24,99,,,,24.839844,,,1324,0,3365,25122,0,762061,,
https://s-static.innovid.com,COMPLETE,200,https,CONNECT,,/127.0.0.1,52361,s-static.innovid.com/184.28.89.78,443,,03 Jun 2019 15:05:21,,,03 Jun 2019 15:05:52,31124,77,23,88,,,,23.55371,,,1324,0,3798,21316,0,724245,,
https://s-static.innovid.com,COMPLETE,200,https,CONNECT,,/127.0.0.1,52363,s-static.innovid.com/184.28.89.78,443,,03 Jun 2019 15:05:21,,,03 Jun 2019 15:05:52,31136,79,25,109,,,,18.266602,,,1324,0,2535,25122,0,553435,,
https://s-static.innovid.com,COMPLETE,200,https,CONNECT,,/127.0.0.1,52364,s-static.innovid.com/184.28.89.78,443,,03 Jun 2019 15:05:21,,,03 Jun 2019 15:05:52,31124,81,25,107,,,,21.250977,,,1324,0,2957,21316,0,651723,,
https://s-files.innovid.com,COMPLETE,200,https,CONNECT,,/127.0.0.1,52365,s-files.innovid.com/184.28.89.78,443,,03 Jun 2019 15:05:21,,,03 Jun 2019 15:05:52,31124,62,26,96,,,,187.71582,,,1319,0,1268,21316,0,5958805,,
https://s.innovid.com,COMPLETE,200,https,CONNECT,,/127.0.0.1,52372,s.innovid.com/18.214.12.6,443,,03 Jun 2019 15:05:21,,,03 Jun 2019 15:06:07,45841,74,9,10,,,,0.119140625,,,1087,0,2194,339,0,2011,,
https://s.tremorvideodsp.com/q/qa.gif?param1=screen_second_quartile,COMPLETE,200,https,GET,image/gif,/127.0.0.1,52374,s.tremorvideodsp.com/23.48.39.112,443,,03 Jun 2019 15:05:21,03 Jun 2019 15:05:21,03 Jun 2019 15:05:21,03 Jun 2019 15:05:21,278,208,9,25,1,0,35,58.07715,1407.2266,0.0,1046,395,,15049,0,43,,
https://l0-secure.videohub.tv/ssframework/log/log.png?EC=7&a=logitemaction&nolog=1&ssPD=tremorvideodsp.com&Uzip=__postalCode__&CI=3502476&ADI=7591056&PRI=1e25ba81-377d-4b7e-b8f4-66961302199a&Udma=__dma__&ssMLVer=rml_app_1.9.0&Uctry=__country__&AVI=425726&ssASVer=2.0&PBI=3500226&RI=1&Ust=__state__&NI=1344&admode=preroll&ssDsC=mobiletablet&ssRnd=1220751824&Eipct=50&EiN=1,COMPLETE,200,https,GET,image/gif,/127.0.0.1,52373,l0-secure.videohub.tv/67.226.210.12,443,,03 Jun 2019 15:05:21,03 Jun 2019 15:05:21,03 Jun 2019 15:05:21,03 Jun 2019 15:05:21,66,2,11,41,0,0,12,409.2832,0.0,0.0,1050,699,,25869,0,43,,
https://ag.innovid.com,COMPLETE,200,https,CONNECT,,/127.0.0.1,52377,ag.innovid.com/34.198.141.147,443,,03 Jun 2019 15:05:21,,,03 Jun 2019 15:06:07,45711,79,9,10,,,,0.09765625,,,1091,0,2197,515,0,810,,
https://s.tremorvideodsp.com/q/qa.gif?param1=creative_second_quartile,COMPLETE,200,https,GET,image/gif,/127.0.0.1,52380,s.tremorvideodsp.com/23.48.39.112,443,,03 Jun 2019 15:05:21,03 Jun 2019 15:05:21,03 Jun 2019 15:05:21,03 Jun 2019 15:05:21,57,3,9,27,1,0,17,280.71875,1350.5859,0.0,986,397,,14959,0,43,,
https://play.google.com,RECEIVING_REQUEST_BODY,200,https,CONNECT,,/127.0.0.1,52382,play.google.com/172.217.10.46,443,,03 Jun 2019 15:05:25,,,,61713,2,4,,,,,0.0078125,,,517,0,0,,0,0,,
https://play.google.com,RECEIVING_REQUEST_BODY,200,https,CONNECT,,/127.0.0.1,52384,play.google.com/172.217.10.46,443,,03 Jun 2019 15:05:25,,,,61652,1,2,,,,,0.0078125,,,517,0,0,,0,0,,
https://s.tremorvideodsp.com/q/qa.gif?param1=screen_third_quartile,COMPLETE,200,https,GET,image/gif,/127.0.0.1,52374,s.tremorvideodsp.com/23.48.39.112,443,,03 Jun 2019 15:05:29,03 Jun 2019 15:05:29,03 Jun 2019 15:05:29,03 Jun 2019 15:05:29,19,,,,0,1,18,22.460938,0.0,41.992188,,394,,,0,43,,
https://l0-secure.videohub.tv/ssframework/log/log.png?EC=7&a=logitemaction&nolog=1&ssPD=tremorvideodsp.com&Uzip=__postalCode__&CI=3502476&ADI=7591056&PRI=1e25ba81-377d-4b7e-b8f4-66961302199a&Udma=__dma__&ssMLVer=rml_app_1.9.0&Uctry=__country__&AVI=425726&ssASVer=2.0&PBI=3500226&RI=1&Ust=__state__&NI=1344&admode=preroll&ssDsC=mobiletablet&ssRnd=494827567&Eipct=75&EiN=1,COMPLETE,200,https,GET,image/gif,/127.0.0.1,52373,l0-secure.videohub.tv/67.226.210.12,443,,03 Jun 2019 15:05:29,03 Jun 2019 15:05:29,03 Jun 2019 15:05:29,03 Jun 2019 15:05:29,177,,11,66,88,0,12,152.6084,19.39746,0.0,1050,698,,25869,0,43,,
https://s.tremorvideodsp.com/q/qa.gif?param1=creative_third_quartile,COMPLETE,200,https,GET,image/gif,/127.0.0.1,52380,s.tremorvideodsp.com/23.48.39.112,443,,03 Jun 2019 15:05:29,03 Jun 2019 15:05:29,03 Jun 2019 15:05:29,03 Jun 2019 15:05:29,26,,,,0,0,26,16.488281,0.0,0.0,,396,,,0,43,,
https://l0-secure.videohub.tv/ssframework/log/log.png?EC=38&a=logitemaction&nolog=1&ssPD=tremorvideodsp.com&Uzip=__postalCode__&CI=3502476&ADI=7591056&PRI=1e25ba81-377d-4b7e-b8f4-66961302199a&Udma=__dma__&ssMLVer=rml_app_1.9.0&Uctry=__country__&AVI=425726&ssASVer=2.0&PBI=3500226&RI=1&Ust=__state__&NI=1344&admode=preroll&ssDsC=mobiletablet&ssRnd=522464609&EvaF=1&pctVw=100,COMPLETE,200,https,GET,image/gif,/127.0.0.1,52373,l0-secure.videohub.tv/67.226.210.12,443,,03 Jun 2019 15:05:35,03 Jun 2019 15:05:35,03 Jun 2019 15:05:35,03 Jun 2019 15:05:35,108,,10,37,49,0,12,250.13477,34.896484,0.0,1050,701,,25869,0,43,,
https://s.tremorvideodsp.com/q/qa.gif?param1=viewable_completion,COMPLETE,200,https,GET,image/gif,/127.0.0.1,52374,s.tremorvideodsp.com/23.48.39.112,443,,03 Jun 2019 15:05:35,03 Jun 2019 15:05:35,03 Jun 2019 15:05:35,03 Jun 2019 15:05:35,16,,,,0,0,16,26.549805,0.0,0.0,,392,,,0,43,,
https://s.tremorvideodsp.com/q/qa.gif?param1=creative_viewable_completion,COMPLETE,200,https,GET,image/gif,/127.0.0.1,52380,s.tremorvideodsp.com/23.48.39.112,443,,03 Jun 2019 15:05:35,03 Jun 2019 15:05:35,03 Jun 2019 15:05:35,03 Jun 2019 15:05:35,216,,,,0,0,216,2.006836,0.0,0.0,,401,,,0,43,,
https://l0-secure.videohub.tv/ssframework/log/log.png?EC=7&a=logitemaction&nolog=1&ssPD=tremorvideodsp.com&Uzip=__postalCode__&CI=3502476&ADI=7591056&PRI=1e25ba81-377d-4b7e-b8f4-66961302199a&Udma=__dma__&ssMLVer=rml_app_1.9.0&Uctry=__country__&AVI=425726&ssASVer=2.0&PBI=3500226&RI=1&Ust=__state__&NI=1344&admode=preroll&ssDsC=mobiletablet&ssRnd=1401843569&Eipct=100&RcpF=1&EiN=1,COMPLETE,200,https,GET,image/gif,/127.0.0.1,52373,l0-secure.videohub.tv/67.226.210.12,443,,03 Jun 2019 15:05:36,03 Jun 2019 15:05:36,03 Jun 2019 15:05:36,03 Jun 2019 15:05:36,15,,,,0,0,15,48.828125,0.0,0.0,,707,,,0,43,,
https://s.tremorvideodsp.com/q/qa.gif?param1=screen_completion,COMPLETE,200,https,GET,image/gif,/127.0.0.1,52374,s.tremorvideodsp.com/23.48.39.112,443,,03 Jun 2019 15:05:36,03 Jun 2019 15:05:36,03 Jun 2019 15:05:36,03 Jun 2019 15:05:36,23,,,,0,1,22,18.384766,0.0,41.992188,,390,,,0,43,,
https://s.tremorvideodsp.com/q/qa.gif?param1=creative_completion,COMPLETE,200,https,GET,image/gif,/127.0.0.1,52380,s.tremorvideodsp.com/23.48.39.112,443,,03 Jun 2019 15:05:36,03 Jun 2019 15:05:36,03 Jun 2019 15:05:36,03 Jun 2019 15:05:36,23,,,,0,0,23,18.469727,0.0,0.0,,392,,,0,43,,
https://s.tremorvideodsp.com/q/qa.gif?param1=completion,COMPLETE,200,https,GET,image/gif,/127.0.0.1,52388,s.tremorvideodsp.com/23.48.39.112,443,,03 Jun 2019 15:05:36,03 Jun 2019 15:05:36,03 Jun 2019 15:05:36,03 Jun 2019 15:05:36,87,1,9,61,0,0,16,183.76172,0.0,0.0,986,383,,14959,0,43,,
https://s.tremorvideodsp.com/q/video1_small.mp4,COMPLETE,206,https,GET,video/mp4,/127.0.0.1,52390,s.tremorvideodsp.com/23.48.39.112,443,,03 Jun 2019 15:05:36,03 Jun 2019 15:05:37,03 Jun 2019 15:05:37,03 Jun 2019 15:05:37,65,3,10,25,0,0,27,247.40039,0.0,0.0,1058,358,,15049,0,2,,
https://s.tremorvideodsp.com/q/video1_small.mp4,COMPLETE,206,https,GET,video/mp4,/127.0.0.1,52390,s.tremorvideodsp.com/23.48.39.112,443,,03 Jun 2019 15:05:37,03 Jun 2019 15:05:37,03 Jun 2019 15:05:37,03 Jun 2019 15:05:37,45,,,,0,14,31,1430.0781,0.0,4571.4277,,362,,,0,65536,,
https://s.tremorvideodsp.com/q/video1_small.mp4,COMPLETE,206,https,GET,video/mp4,/127.0.0.1,52390,s.tremorvideodsp.com/23.48.39.112,443,,03 Jun 2019 15:05:37,03 Jun 2019 15:05:37,03 Jun 2019 15:05:37,03 Jun 2019 15:05:37,28,,,,0,6,22,2298.5488,0.0,10666.666,,368,,,0,65536,,
https://s.tremorvideodsp.com/q/video1_small.mp4,COMPLETE,206,https,GET,video/mp4,/127.0.0.1,52392,s.tremorvideodsp.com/23.48.39.112,443,,03 Jun 2019 15:05:37,03 Jun 2019 15:05:37,03 Jun 2019 15:05:37,03 Jun 2019 15:05:37,776,2,9,29,0,644,92,12467.421,0.0,15020.802,986,368,,14959,0,9890599,,
https://s.tremorvideodsp.com/q/video1_small.mp4,COMPLETE,206,https,GET,video/mp4,/127.0.0.1,52390,s.tremorvideodsp.com/23.48.39.112,443,,03 Jun 2019 15:05:37,03 Jun 2019 15:05:37,03 Jun 2019 15:05:37,03 Jun 2019 15:05:37,31,,,,0,7,24,2076.1084,0.0,9142.856,,368,,,0,65536,,
https://jwpltx.com,COMPLETE,200,https,CONNECT,,/127.0.0.1,52394,jwpltx.com/54.174.103.247,443,,03 Jun 2019 15:05:37,,,03 Jun 2019 15:06:12,35098,9,8,41,,,,0.9638672,,,1449,0,1205,31731,0,264,,
https://prd.jwpltx.com,COMPLETE,200,https,CONNECT,,/127.0.0.1,52395,prd.jwpltx.com/52.22.138.251,443,,03 Jun 2019 15:05:37,,,03 Jun 2019 15:06:08,30558,72,9,37,,,,1.0927734,,,1469,0,886,31731,0,132,,
https://entitlements.jwplayer.com,COMPLETE,200,https,CONNECT,,/127.0.0.1,52398,entitlements.jwplayer.com/72.21.81.189,443,,03 Jun 2019 15:05:42,,,03 Jun 2019 15:06:12,30127,9,2,64,,,,1.1611328,,,1524,0,317,33541,0,464,,
https://s.tremorvideodsp.com/q/video1_small.mp4,COMPLETE,206,https,GET,video/mp4,/127.0.0.1,52400,s.tremorvideodsp.com/23.48.39.112,443,,03 Jun 2019 15:05:42,03 Jun 2019 15:05:42,03 Jun 2019 15:05:42,03 Jun 2019 15:05:42,69,2,8,24,0,0,35,233.0586,0.0,0.0,1058,358,,15049,0,2,,
https://s.tremorvideodsp.com/q/video1_small.mp4,COMPLETE,206,https,GET,video/mp4,/127.0.0.1,52400,s.tremorvideodsp.com/23.48.39.112,443,,03 Jun 2019 15:05:42,03 Jun 2019 15:05:42,03 Jun 2019 15:05:42,03 Jun 2019 15:05:42,42,,,,0,17,25,1532.2266,0.0,3764.705,,362,,,0,65536,,
https://s.tremorvideodsp.com/q/video1_small.mp4,COMPLETE,206,https,GET,video/mp4,/127.0.0.1,52400,s.tremorvideodsp.com/23.48.39.112,443,,03 Jun 2019 15:05:42,03 Jun 2019 15:05:42,03 Jun 2019 15:05:42,03 Jun 2019 15:05:42,34,,,,0,7,27,1892.9219,0.0,9142.856,,368,,,0,65536,,
https://s.tremorvideodsp.com/q/video1_small.mp4,COMPLETE,206,https,GET,video/mp4,/127.0.0.1,52402,s.tremorvideodsp.com/23.48.39.112,443,com.xk72.proxy.ProxyException: Client closed connection before receiving entire response,03 Jun 2019 15:05:42,03 Jun 2019 15:05:42,03 Jun 2019 15:05:42,03 Jun 2019 15:05:43,263,3,8,24,0,173,55,4347.2773,0.0,6601.2236,986,368,,14959,0,1154461,,
https://s.tremorvideodsp.com/q/video1_small.mp4,COMPLETE,206,https,GET,video/mp4,/127.0.0.1,52400,s.tremorvideodsp.com/23.48.39.112,443,,03 Jun 2019 15:05:42,03 Jun 2019 15:05:42,03 Jun 2019 15:05:42,03 Jun 2019 15:05:42,24,,,,0,3,21,2681.6406,0.0,21333.332,,368,,,0,65536,,
